%!PS-Adobe-3.0 EPSF-3.0
%%Creator: cairo 1.16.0 (https://cairographics.org)
%%CreationDate: Thu Apr  8 07:10:15 2021
%%Pages: 1
%%DocumentData: Clean7Bit
%%LanguageLevel: 2
%%BoundingBox: 45 0 339 384
%%EndComments
%%BeginProlog
50 dict begin
/q { gsave } bind def
/Q { grestore } bind def
/cm { 6 array astore concat } bind def
/w { setlinewidth } bind def
/J { setlinecap } bind def
/j { setlinejoin } bind def
/M { setmiterlimit } bind def
/d { setdash } bind def
/m { moveto } bind def
/l { lineto } bind def
/c { curveto } bind def
/h { closepath } bind def
/re { exch dup neg 3 1 roll 5 3 roll moveto 0 rlineto
      0 exch rlineto 0 rlineto closepath } bind def
/S { stroke } bind def
/f { fill } bind def
/f* { eofill } bind def
/n { newpath } bind def
/W { clip } bind def
/W* { eoclip } bind def
/BT { } bind def
/ET { } bind def
/BDC { mark 3 1 roll /BDC pdfmark } bind def
/EMC { mark /EMC pdfmark } bind def
/cairo_store_point { /cairo_point_y exch def /cairo_point_x exch def } def
/Tj { show currentpoint cairo_store_point } bind def
/TJ {
  {
    dup
    type /stringtype eq
    { show } { -0.001 mul 0 cairo_font_matrix dtransform rmoveto } ifelse
  } forall
  currentpoint cairo_store_point
} bind def
/cairo_selectfont { cairo_font_matrix aload pop pop pop 0 0 6 array astore
    cairo_font exch selectfont cairo_point_x cairo_point_y moveto } bind def
/Tf { pop /cairo_font exch def /cairo_font_matrix where
      { pop cairo_selectfont } if } bind def
/Td { matrix translate cairo_font_matrix matrix concatmatrix dup
      /cairo_font_matrix exch def dup 4 get exch 5 get cairo_store_point
      /cairo_font where { pop cairo_selectfont } if } bind def
/Tm { 2 copy 8 2 roll 6 array astore /cairo_font_matrix exch def
      cairo_store_point /cairo_font where { pop cairo_selectfont } if } bind def
/g { setgray } bind def
/rg { setrgbcolor } bind def
/d1 { setcachedevice } bind def
/cairo_data_source {
  CairoDataIndex CairoData length lt
    { CairoData CairoDataIndex get /CairoDataIndex CairoDataIndex 1 add def }
    { () } ifelse
} def
/cairo_flush_ascii85_file { cairo_ascii85_file status { cairo_ascii85_file flushfile } if } def
/cairo_image { image cairo_flush_ascii85_file } def
/cairo_imagemask { imagemask cairo_flush_ascii85_file } def
%%EndProlog
%%BeginSetup
%%EndSetup
%%Page: 1 1
%%BeginPageSetup
%%PageBoundingBox: 45 0 339 384
%%EndPageSetup
q 45 0 294 384 rectclip
1 0 0 -1 0 384 cm q
0.952941 0.960784 0.976471 rg
327 0 m 57 0 l 50.781 0 45.75 5.031 45.75 11.25 c 45.75 372.75 l 45.75 
378.969 50.781 384 57 384 c 327 384 l 333.219 384 338.25 378.969 338.25 
372.75 c 338.25 11.25 l 338.25 5.031 333.219 0 327 0 c h
327 0 m f
0.882353 0.901961 0.941176 rg
338.25 372.75 m 338.25 11.25 l 338.25 5.031 333.219 0 327 0 c 192 0 l 192
 384 l 327 384 l 333.219 384 338.25 378.969 338.25 372.75 c h
338.25 372.75 m f
0.901961 0.580392 0.360784 rg
276.793 264.73 m 276.816 252.82 272.18 241.484 263.586 232.902 c 253.875
 223.168 240.539 218.531 227.004 219.973 c 218.566 209.488 205.285 204.25
 192 204.25 c 178.719 204.25 165.438 209.488 157 219.973 c 143.418 218.477
 130.125 223.156 120.414 232.891 c 111.824 241.484 107.188 252.82 107.207
 264.73 c 96.684 275.223 90.75 289.414 90.75 304.5 c 90.75 314.375 93.363
 324.109 98.285 332.625 c 100.285 336.109 104 338.25 108.02 338.25 c 135.75
 338.25 l 158.25 327 l 225.75 327 l 248.25 338.25 l 275.98 338.25 l 280 
338.25 283.715 336.109 285.715 332.625 c 290.637 324.109 293.25 314.375 
293.25 304.5 c 293.25 289.414 287.316 275.223 276.793 264.73 c h
276.793 264.73 m f
0.8 0.427451 0.239216 rg
248.25 338.25 m 275.98 338.25 l 280 338.25 283.715 336.109 285.715 332.625
 c 290.637 324.109 293.25 314.375 293.25 304.5 c 293.25 289.414 287.316 
275.223 276.793 264.73 c 276.816 252.82 272.18 241.484 263.586 232.902 c
 253.875 223.168 240.539 218.531 227.004 219.973 c 218.566 209.488 205.285
 204.25 192 204.25 c 192 327 l 225.75 327 l h
248.25 338.25 m f
1 0.882353 0.298039 rg
192 270.75 m 160.934 270.75 135.75 295.934 135.75 327 c 135.75 338.25 l
 248.25 338.25 l 248.25 327 l 248.25 295.934 223.066 270.75 192 270.75 c
 h
192 270.75 m f
1 0.74902 0.25098 rg
248.25 327 m 248.25 295.934 223.066 270.75 192 270.75 c 192 338.25 l 248.25
 338.25 l h
248.25 327 m f
0.901961 0.580392 0.360784 rg
276.793 107.23 m 276.816 95.32 272.18 83.984 263.586 75.402 c 253.875 65.668
 240.539 61.031 227.004 62.473 c 218.566 51.988 205.281 46.75 192 46.75 
c 178.719 46.75 165.434 51.988 156.996 62.473 c 143.418 60.977 130.125 65.656
 120.414 75.391 c 111.82 83.984 107.184 95.32 107.207 107.23 c 96.684 117.723
 90.75 131.914 90.75 147 c 90.75 156.875 93.363 166.609 98.285 175.125 c
 100.285 178.609 104 180.75 108.02 180.75 c 135.75 180.75 l 158.25 169.5
 l 225.75 169.5 l 248.25 180.75 l 275.98 180.75 l 280 180.75 283.715 178.609
 285.715 175.125 c 290.637 166.609 293.25 156.875 293.25 147 c 293.25 131.914
 287.316 117.723 276.793 107.23 c h
276.793 107.23 m f
0.8 0.427451 0.239216 rg
248.25 180.75 m 275.98 180.75 l 280 180.75 283.715 178.609 285.715 175.125
 c 290.637 166.609 293.25 156.875 293.25 147 c 293.25 131.914 287.316 117.723
 276.793 107.23 c 276.816 95.32 272.18 83.984 263.586 75.402 c 253.875 65.668
 240.539 61.031 227.004 62.473 c 218.566 51.988 205.281 46.75 192 46.75 
c 192 169.5 l 225.75 169.5 l h
248.25 180.75 m f
1 0.882353 0.298039 rg
192 113.25 m 160.934 113.25 135.75 138.434 135.75 169.5 c 135.75 180.75
 l 248.25 180.75 l 248.25 169.5 l 248.25 138.434 223.066 113.25 192 113.25
 c h
192 113.25 m f
1 0.74902 0.25098 rg
248.25 169.5 m 248.25 138.434 223.066 113.25 192 113.25 c 192 180.75 l 
248.25 180.75 l h
248.25 169.5 m f
Q Q
showpage
%%Trailer
end
%%EOF
