%!PS-Adobe-3.0 EPSF-3.0
%%Creator: cairo 1.16.0 (https://cairographics.org)
%%CreationDate: Thu Apr  8 07:10:17 2021
%%Pages: 1
%%DocumentData: Clean7Bit
%%LanguageLevel: 2
%%BoundingBox: 0 0 384 384
%%EndComments
%%BeginProlog
50 dict begin
/q { gsave } bind def
/Q { grestore } bind def
/cm { 6 array astore concat } bind def
/w { setlinewidth } bind def
/J { setlinecap } bind def
/j { setlinejoin } bind def
/M { setmiterlimit } bind def
/d { setdash } bind def
/m { moveto } bind def
/l { lineto } bind def
/c { curveto } bind def
/h { closepath } bind def
/re { exch dup neg 3 1 roll 5 3 roll moveto 0 rlineto
      0 exch rlineto 0 rlineto closepath } bind def
/S { stroke } bind def
/f { fill } bind def
/f* { eofill } bind def
/n { newpath } bind def
/W { clip } bind def
/W* { eoclip } bind def
/BT { } bind def
/ET { } bind def
/BDC { mark 3 1 roll /BDC pdfmark } bind def
/EMC { mark /EMC pdfmark } bind def
/cairo_store_point { /cairo_point_y exch def /cairo_point_x exch def } def
/Tj { show currentpoint cairo_store_point } bind def
/TJ {
  {
    dup
    type /stringtype eq
    { show } { -0.001 mul 0 cairo_font_matrix dtransform rmoveto } ifelse
  } forall
  currentpoint cairo_store_point
} bind def
/cairo_selectfont { cairo_font_matrix aload pop pop pop 0 0 6 array astore
    cairo_font exch selectfont cairo_point_x cairo_point_y moveto } bind def
/Tf { pop /cairo_font exch def /cairo_font_matrix where
      { pop cairo_selectfont } if } bind def
/Td { matrix translate cairo_font_matrix matrix concatmatrix dup
      /cairo_font_matrix exch def dup 4 get exch 5 get cairo_store_point
      /cairo_font where { pop cairo_selectfont } if } bind def
/Tm { 2 copy 8 2 roll 6 array astore /cairo_font_matrix exch def
      cairo_store_point /cairo_font where { pop cairo_selectfont } if } bind def
/g { setgray } bind def
/rg { setrgbcolor } bind def
/d1 { setcachedevice } bind def
/cairo_data_source {
  CairoDataIndex CairoData length lt
    { CairoData CairoDataIndex get /CairoDataIndex CairoDataIndex 1 add def }
    { () } ifelse
} def
/cairo_flush_ascii85_file { cairo_ascii85_file status { cairo_ascii85_file flushfile } if } def
/cairo_image { image cairo_flush_ascii85_file } def
/cairo_imagemask { imagemask cairo_flush_ascii85_file } def
%%EndProlog
%%BeginSetup
%%EndSetup
%%Page: 1 1
%%BeginPageSetup
%%PageBoundingBox: 0 0 384 384
%%EndPageSetup
q 0 0 384 384 rectclip
1 0 0 -1 0 384 cm q
0 g
45.941 381.703 m 45.938 381.707 45.934 381.707 45.93 381.707 c 44.668 382.203
 44.316 382.336 45.941 381.703 c h
45.941 381.703 m f
0.901961 0.580392 0.360784 rg
383.391 134.875 m 382.684 132.801 365.523 83.559 332.984 51.027 c 300.441
 18.496 251.223 1.336 249.137 0.625 c 245.465 -0.672 241.312 0.086 238.305
 2.602 c 234.613 5.668 149.793 76.434 104.949 136.727 c 69.867 183.91 20.105
 291.742 2.262 338.109 c -2.527 350.559 0.414 364.598 9.906 374.09 c 19.309
 383.492 33.285 386.594 45.93 381.707 c 57.758 377.074 187.738 324.547 247.988
 279.754 c 308.258 234.898 378.336 149.422 381.41 145.707 c 383.914 142.699
 384.664 138.59 383.391 134.875 c h
383.391 134.875 m f
0.8 0.427451 0.239216 rg
45.93 381.707 m 57.758 377.074 187.738 324.547 247.988 279.754 c 308.258
 234.898 378.336 149.422 381.41 145.707 c 383.914 142.699 384.664 138.59
 383.391 134.875 c 382.684 132.801 365.523 83.559 332.984 51.027 c 9.91 
374.09 l 19.309 383.492 33.285 386.594 45.93 381.707 c h
45.93 381.707 m f
305.25 135 m 311.469 135 316.5 129.969 316.5 123.75 c 316.5 117.531 311.469
 112.5 305.25 112.5 c 215.25 112.5 l 209.031 112.5 204 117.531 204 123.75
 c 204 129.969 209.031 135 215.25 135 c h
305.25 135 m f
0.6 0.25098 0.180392 rg
305.25 135 m 311.469 135 316.5 129.969 316.5 123.75 c 316.5 117.531 311.469
 112.5 305.25 112.5 c 271.508 112.5 l 249 135.008 l h
305.25 135 m f
0.8 0.427451 0.239216 rg
214.875 225.375 m 221.094 225.375 226.125 220.344 226.125 214.125 c 226.125
 207.906 221.094 202.875 214.875 202.875 c 124.875 202.875 l 118.656 202.875
 113.625 207.906 113.625 214.125 c 113.625 220.344 118.656 225.375 124.875
 225.375 c h
214.875 225.375 m f
0.6 0.25098 0.180392 rg
214.875 225.375 m 221.094 225.375 226.125 220.344 226.125 214.125 c 226.125
 207.906 221.094 202.875 214.875 202.875 c 181.133 202.875 l 158.625 225.383
 l h
214.875 225.375 m f
Q Q
showpage
%%Trailer
end
%%EOF
