%!PS-Adobe-3.0 EPSF-3.0
%%Creator: cairo 1.16.0 (https://cairographics.org)
%%CreationDate: Thu Apr  8 07:10:19 2021
%%Pages: 1
%%DocumentData: Clean7Bit
%%LanguageLevel: 2
%%BoundingBox: 0 68 384 316
%%EndComments
%%BeginProlog
50 dict begin
/q { gsave } bind def
/Q { grestore } bind def
/cm { 6 array astore concat } bind def
/w { setlinewidth } bind def
/J { setlinecap } bind def
/j { setlinejoin } bind def
/M { setmiterlimit } bind def
/d { setdash } bind def
/m { moveto } bind def
/l { lineto } bind def
/c { curveto } bind def
/h { closepath } bind def
/re { exch dup neg 3 1 roll 5 3 roll moveto 0 rlineto
      0 exch rlineto 0 rlineto closepath } bind def
/S { stroke } bind def
/f { fill } bind def
/f* { eofill } bind def
/n { newpath } bind def
/W { clip } bind def
/W* { eoclip } bind def
/BT { } bind def
/ET { } bind def
/BDC { mark 3 1 roll /BDC pdfmark } bind def
/EMC { mark /EMC pdfmark } bind def
/cairo_store_point { /cairo_point_y exch def /cairo_point_x exch def } def
/Tj { show currentpoint cairo_store_point } bind def
/TJ {
  {
    dup
    type /stringtype eq
    { show } { -0.001 mul 0 cairo_font_matrix dtransform rmoveto } ifelse
  } forall
  currentpoint cairo_store_point
} bind def
/cairo_selectfont { cairo_font_matrix aload pop pop pop 0 0 6 array astore
    cairo_font exch selectfont cairo_point_x cairo_point_y moveto } bind def
/Tf { pop /cairo_font exch def /cairo_font_matrix where
      { pop cairo_selectfont } if } bind def
/Td { matrix translate cairo_font_matrix matrix concatmatrix dup
      /cairo_font_matrix exch def dup 4 get exch 5 get cairo_store_point
      /cairo_font where { pop cairo_selectfont } if } bind def
/Tm { 2 copy 8 2 roll 6 array astore /cairo_font_matrix exch def
      cairo_store_point /cairo_font where { pop cairo_selectfont } if } bind def
/g { setgray } bind def
/rg { setrgbcolor } bind def
/d1 { setcachedevice } bind def
/cairo_data_source {
  CairoDataIndex CairoData length lt
    { CairoData CairoDataIndex get /CairoDataIndex CairoDataIndex 1 add def }
    { () } ifelse
} def
/cairo_flush_ascii85_file { cairo_ascii85_file status { cairo_ascii85_file flushfile } if } def
/cairo_image { image cairo_flush_ascii85_file } def
/cairo_imagemask { imagemask cairo_flush_ascii85_file } def
%%EndProlog
%%BeginSetup
%%EndSetup
%%Page: 1 1
%%BeginPageSetup
%%PageBoundingBox: 0 68 384 316
%%EndPageSetup
q 0 68 384 248 rectclip
1 0 0 -1 0 384 cm q
0.952941 0.960784 0.976471 rg
192 147 m 22.5 147 l 22.5 237 l 22.5 280.418 58.582 315.75 102 315.75 c
 282 315.75 l 325.418 315.75 361.5 280.418 361.5 237 c 361.5 147 l h
192 147 m f
0.882353 0.901961 0.941176 rg
361.5 237 m 361.5 147 l 192 147 l 192 315.75 l 282 315.75 l 325.418 315.75
 361.5 280.418 361.5 237 c h
361.5 237 m f
1 0.454902 0.34902 rg
336.895 88.82 m 324.254 90.684 l 316.648 78.301 l 306.004 73.801 294.945
 70.703 284.062 69.262 c 266.641 77.48 l 256.68 68.25 l 217.32 68.25 l 200.523
 75.645 l 192 70.086 l 189.184 68.25 l 149.812 68.25 l 121.488 91.023 l 
121.68 68.25 l 113.25 68.25 l 62.602 68.25 0 109.777 0 158.25 c 0 170.652
 10.086 180.75 22.5 180.75 c 61.898 180.75 82.664 175.027 101.977 169.5 
c 116.723 165.293 147.988 158.25 192 158.25 c 236.012 158.25 267.277 165.293
 282 169.488 c 301.336 175.027 322.102 180.75 361.5 180.75 c 373.914 180.75
 384 170.652 384 158.25 c 384 130.766 363.348 105.535 336.895 88.82 c h
336.895 88.82 m f
0.94902 0.294118 0.235294 rg
361.5 180.75 m 373.914 180.75 384 170.652 384 158.25 c 384 130.766 363.348
 105.535 336.895 88.82 c 324.254 90.684 l 316.648 78.301 l 306.004 73.801
 294.945 70.703 284.062 69.262 c 266.641 77.48 l 256.68 68.25 l 217.32 68.25
 l 200.523 75.645 l 192 70.086 l 192 158.25 l 236.012 158.25 267.277 165.293
 282 169.488 c 301.336 175.027 322.102 180.75 361.5 180.75 c h
361.5 180.75 m f
0.811765 0.843137 0.901961 rg
270.75 237 m 270.75 243.215 265.715 248.25 259.5 248.25 c 253.285 248.25
 248.25 243.215 248.25 237 c 248.25 230.785 253.285 225.75 259.5 225.75 
c 265.715 225.75 270.75 230.785 270.75 237 c h
270.75 237 m f
0.882353 0.901961 0.941176 rg
135.75 237 m 135.75 243.215 130.715 248.25 124.5 248.25 c 118.285 248.25
 113.25 243.215 113.25 237 c 113.25 230.785 118.285 225.75 124.5 225.75 
c 130.715 225.75 135.75 230.785 135.75 237 c h
135.75 237 m f
203.25 259.5 m 203.25 265.715 198.215 270.75 192 270.75 c 185.785 270.75
 180.75 265.715 180.75 259.5 c 180.75 253.285 185.785 248.25 192 248.25 
c 198.215 248.25 203.25 253.285 203.25 259.5 c h
203.25 259.5 m f
0.811765 0.843137 0.901961 rg
203.25 259.5 m 203.25 253.285 198.215 248.25 192 248.25 c 192 270.75 l 
198.215 270.75 203.25 265.715 203.25 259.5 c h
203.25 259.5 m f
0.94902 0.294118 0.235294 rg
192 68.25 m 189.184 68.25 l 160.008 107.152 l 156.293 112.117 157.305 119.172
 162.27 122.895 c 167.242 126.625 174.289 125.617 178.023 120.645 c 192 
102.012 l 217.32 68.25 l h
192 68.25 m f
0.8 0.160784 0.266667 rg
192 68.25 m 192 102.012 l 217.32 68.25 l h
192 68.25 m f
228.387 124.73 m 233.359 128.461 240.406 127.453 244.141 122.48 c 284.062
 69.258 l 279.574 68.664 275.117 68.25 270.75 68.25 c 256.68 68.25 l 226.125
 108.988 l 222.41 113.953 223.422 121.008 228.387 124.73 c h
228.387 124.73 m f
286 137.938 m 290.969 141.664 298.016 140.66 301.754 135.684 c 336.895 
88.82 l 330.473 84.762 323.656 81.258 316.648 78.297 c 283.734 122.191 l
 280.023 127.16 281.035 134.211 286 137.938 c h
286 137.938 m f
0.94902 0.294118 0.235294 rg
83.234 138.277 m 88.207 142.004 95.254 141 98.988 136.023 c 149.812 68.25
 l 121.68 68.25 l 80.973 122.535 l 77.258 127.5 78.27 134.551 83.234 138.277
 c h
83.234 138.277 m f
Q Q
showpage
%%Trailer
end
%%EOF
