%!PS-Adobe-3.0 EPSF-3.0
%%Creator: cairo 1.16.0 (https://cairographics.org)
%%CreationDate: Thu Apr  8 07:10:20 2021
%%Pages: 1
%%DocumentData: Clean7Bit
%%LanguageLevel: 2
%%BoundingBox: 0 0 384 384
%%EndComments
%%BeginProlog
50 dict begin
/q { gsave } bind def
/Q { grestore } bind def
/cm { 6 array astore concat } bind def
/w { setlinewidth } bind def
/J { setlinecap } bind def
/j { setlinejoin } bind def
/M { setmiterlimit } bind def
/d { setdash } bind def
/m { moveto } bind def
/l { lineto } bind def
/c { curveto } bind def
/h { closepath } bind def
/re { exch dup neg 3 1 roll 5 3 roll moveto 0 rlineto
      0 exch rlineto 0 rlineto closepath } bind def
/S { stroke } bind def
/f { fill } bind def
/f* { eofill } bind def
/n { newpath } bind def
/W { clip } bind def
/W* { eoclip } bind def
/BT { } bind def
/ET { } bind def
/BDC { mark 3 1 roll /BDC pdfmark } bind def
/EMC { mark /EMC pdfmark } bind def
/cairo_store_point { /cairo_point_y exch def /cairo_point_x exch def } def
/Tj { show currentpoint cairo_store_point } bind def
/TJ {
  {
    dup
    type /stringtype eq
    { show } { -0.001 mul 0 cairo_font_matrix dtransform rmoveto } ifelse
  } forall
  currentpoint cairo_store_point
} bind def
/cairo_selectfont { cairo_font_matrix aload pop pop pop 0 0 6 array astore
    cairo_font exch selectfont cairo_point_x cairo_point_y moveto } bind def
/Tf { pop /cairo_font exch def /cairo_font_matrix where
      { pop cairo_selectfont } if } bind def
/Td { matrix translate cairo_font_matrix matrix concatmatrix dup
      /cairo_font_matrix exch def dup 4 get exch 5 get cairo_store_point
      /cairo_font where { pop cairo_selectfont } if } bind def
/Tm { 2 copy 8 2 roll 6 array astore /cairo_font_matrix exch def
      cairo_store_point /cairo_font where { pop cairo_selectfont } if } bind def
/g { setgray } bind def
/rg { setrgbcolor } bind def
/d1 { setcachedevice } bind def
/cairo_data_source {
  CairoDataIndex CairoData length lt
    { CairoData CairoDataIndex get /CairoDataIndex CairoDataIndex 1 add def }
    { () } ifelse
} def
/cairo_flush_ascii85_file { cairo_ascii85_file status { cairo_ascii85_file flushfile } if } def
/cairo_image { image cairo_flush_ascii85_file } def
/cairo_imagemask { imagemask cairo_flush_ascii85_file } def
%%EndProlog
%%BeginSetup
%%EndSetup
%%Page: 1 1
%%BeginPageSetup
%%PageBoundingBox: 0 0 384 384
%%EndPageSetup
q 0 0 384 384 rectclip
1 0 0 -1 0 384 cm q
0.239216 0.270588 0.4 rg
380.047 3.812 m 377.551 1.121 372.109 -0.414 368.145 0.316 c 136.879 43.098
 l 135.105 43.418 133.52 44.234 132.133 45.285 c 123.992 90.367 l 128.781
 135.926 140.531 170.398 176.98 206.852 c 176.984 206.855 176.988 206.859
 176.992 206.863 c 231.691 261.555 307.309 257.43 310.516 257.891 c 341.438
 248.242 l 383.883 15.133 l 384.539 11.402 382.312 6.25 380.047 3.812 c 
h
380.047 3.812 m f
0.180392 0.180392 0.301961 rg
341.438 248.242 m 383.883 15.133 l 384.539 11.402 382.312 6.25 380.047 
3.809 c 176.992 206.863 l 231.695 261.555 307.309 257.43 310.516 257.891
 c h
341.438 248.242 m f
0.882353 0.901961 0.941176 rg
345.582 117.77 m 324.457 96.645 292.527 91.871 266.242 105.867 c 234.84
 122.547 221.379 159.758 230.316 205.816 c 284.84 235.793 l 316.68 235.793
 342 223.387 355.969 199.812 c 371.648 173.305 367.387 139.566 345.582 117.77
 c h
345.582 117.77 m f
0.94902 0.294118 0.235294 rg
274.039 109.82 m 249.926 85.73 215.625 75.398 182.18 82.23 c 147.988 89.191
 120.496 112.762 106.727 146.879 c 162.023 221.832 l 208.621 284.992 l 253.57
 277.504 286.445 251.008 298.852 212.316 c 310.469 176.02 300.961 136.742
 274.039 109.82 c h
274.039 109.82 m f
0.8 0.160784 0.266667 rg
298.852 212.316 m 310.469 176.02 300.957 136.746 274.039 109.82 c 162.023
 221.836 l 208.621 284.992 l 253.57 277.504 286.445 251.012 298.852 212.316
 c h
298.852 212.316 m f
1 0.454902 0.34902 rg
258.137 125.719 m 239.406 107 212.746 98.973 186.684 104.254 c 161.891 
109.305 141.555 125.73 130.047 149.688 c 173.977 209.879 l 211.648 261.496
 l 244.523 254.094 268.305 233.945 277.441 205.453 c 286.488 177.215 279.086
 146.668 258.137 125.719 c h
258.137 125.719 m f
0.94902 0.294118 0.235294 rg
277.441 205.453 m 286.488 177.215 279.086 146.668 258.137 125.719 c 173.98
 209.879 l 211.652 261.496 l 244.523 254.094 268.305 233.949 277.441 205.453
 c h
277.441 205.453 m f
242.238 141.617 m 227.109 126.488 205.086 121.297 184.793 128.004 c 163.449
 135.062 148.539 154.102 144.871 178.926 c 174.801 209.059 l 204.559 239.02
 l 229.504 235.473 248.652 220.586 255.809 199.207 c 262.598 178.852 257.391
 156.781 242.238 141.617 c h
242.238 141.617 m f
0.8 0.160784 0.266667 rg
255.809 199.207 m 262.598 178.852 257.391 156.781 242.238 141.617 c 174.801
 209.059 l 204.559 239.02 l 229.504 235.473 248.652 220.586 255.809 199.207
 c h
255.809 199.207 m f
1 0.454902 0.34902 rg
226.34 157.516 m 217.25 148.426 203.965 145.309 191.863 149.348 c 180.051
 153.258 171.617 163.148 168.172 176.875 c 187.508 196.352 l 206.754 215.734
 l 220.543 212.352 230.516 203.93 234.469 192.082 c 238.551 179.863 235.434
 166.621 226.34 157.516 c h
226.34 157.516 m f
0.94902 0.294118 0.235294 rg
234.465 192.082 m 238.551 179.859 235.434 166.617 226.34 157.516 c 187.508
 196.352 l 206.754 215.73 l 220.543 212.352 230.512 203.93 234.465 192.082
 c h
234.465 192.082 m f
0.4 0.74902 0.223529 rg
372.641 248.242 m 202.492 248.242 l 202.492 203.27 l 372.641 203.27 l 378.852
 203.27 383.883 208.305 383.883 214.512 c 383.883 237 l 383.883 243.207 
378.852 248.242 372.641 248.242 c h
372.641 248.242 m f
0.239216 0.270588 0.4 rg
199.48 184.379 m 199.477 184.375 199.473 184.371 199.469 184.367 c 169.535
 154.426 152.988 121.652 142.648 88.344 c 122.43 100.867 l 113.023 270.836
 l 111.402 300.082 l 158.039 325.738 l 341.438 248.242 l 287.875 240.07 
236.035 220.922 199.48 184.379 c h
199.48 184.379 m f
0.180392 0.180392 0.301961 rg
158.039 325.742 m 341.438 248.242 l 287.875 240.07 236.035 220.922 199.48
 184.379 c 113.023 270.836 l 111.402 300.082 l h
158.039 325.742 m f
0.301961 0.368627 0.501961 rg
138.793 245.062 m 131.18 193.199 132.281 140.176 142.648 88.344 c 138.203
 74.027 134.781 59.621 132.137 45.285 c 130.531 46.5 129.211 48.062 128.445
 49.992 c 55.867 231.461 72.707 188.676 0.805 368.449 c -0.863 372.621 0.102
 377.387 3.289 380.57 c 6.535 383.82 11.344 384.695 15.41 383.062 c 158.039
 325.742 l 149.113 299.418 142.809 272.391 138.793 245.062 c h
138.793 245.062 m f
0.239216 0.270588 0.4 rg
15.41 383.062 m 158.039 325.742 l 149.113 299.418 142.805 272.391 138.793
 245.066 c 3.289 380.57 l 6.535 383.82 11.344 384.695 15.41 383.062 c h
15.41 383.062 m f
Q Q
showpage
%%Trailer
end
%%EOF
