%!PS-Adobe-3.0 EPSF-3.0
%%Creator: cairo 1.16.0 (https://cairographics.org)
%%CreationDate: Thu Apr  8 07:10:21 2021
%%Pages: 1
%%DocumentData: Clean7Bit
%%LanguageLevel: 2
%%BoundingBox: 0 68 384 316
%%EndComments
%%BeginProlog
50 dict begin
/q { gsave } bind def
/Q { grestore } bind def
/cm { 6 array astore concat } bind def
/w { setlinewidth } bind def
/J { setlinecap } bind def
/j { setlinejoin } bind def
/M { setmiterlimit } bind def
/d { setdash } bind def
/m { moveto } bind def
/l { lineto } bind def
/c { curveto } bind def
/h { closepath } bind def
/re { exch dup neg 3 1 roll 5 3 roll moveto 0 rlineto
      0 exch rlineto 0 rlineto closepath } bind def
/S { stroke } bind def
/f { fill } bind def
/f* { eofill } bind def
/n { newpath } bind def
/W { clip } bind def
/W* { eoclip } bind def
/BT { } bind def
/ET { } bind def
/BDC { mark 3 1 roll /BDC pdfmark } bind def
/EMC { mark /EMC pdfmark } bind def
/cairo_store_point { /cairo_point_y exch def /cairo_point_x exch def } def
/Tj { show currentpoint cairo_store_point } bind def
/TJ {
  {
    dup
    type /stringtype eq
    { show } { -0.001 mul 0 cairo_font_matrix dtransform rmoveto } ifelse
  } forall
  currentpoint cairo_store_point
} bind def
/cairo_selectfont { cairo_font_matrix aload pop pop pop 0 0 6 array astore
    cairo_font exch selectfont cairo_point_x cairo_point_y moveto } bind def
/Tf { pop /cairo_font exch def /cairo_font_matrix where
      { pop cairo_selectfont } if } bind def
/Td { matrix translate cairo_font_matrix matrix concatmatrix dup
      /cairo_font_matrix exch def dup 4 get exch 5 get cairo_store_point
      /cairo_font where { pop cairo_selectfont } if } bind def
/Tm { 2 copy 8 2 roll 6 array astore /cairo_font_matrix exch def
      cairo_store_point /cairo_font where { pop cairo_selectfont } if } bind def
/g { setgray } bind def
/rg { setrgbcolor } bind def
/d1 { setcachedevice } bind def
/cairo_data_source {
  CairoDataIndex CairoData length lt
    { CairoData CairoDataIndex get /CairoDataIndex CairoDataIndex 1 add def }
    { () } ifelse
} def
/cairo_flush_ascii85_file { cairo_ascii85_file status { cairo_ascii85_file flushfile } if } def
/cairo_image { image cairo_flush_ascii85_file } def
/cairo_imagemask { imagemask cairo_flush_ascii85_file } def
%%EndProlog
%%BeginSetup
%%EndSetup
%%Page: 1 1
%%BeginPageSetup
%%PageBoundingBox: 0 68 384 316
%%EndPageSetup
q 0 68 384 248 rectclip
1 0 0 -1 0 384 cm q
0.701961 0.388235 0.282353 rg
33.75 135.949 m 11.25 135.949 l 5.031 135.949 0 130.918 0 124.699 c 0 118.48
 5.031 113.449 11.25 113.449 c 33.75 113.449 l 39.969 113.449 45 118.48 
45 124.699 c 45 130.918 39.969 135.949 33.75 135.949 c h
33.75 135.949 m f
33.75 203.449 m 11.25 203.449 l 5.031 203.449 0 198.418 0 192.199 c 0 185.98
 5.031 180.949 11.25 180.949 c 33.75 180.949 l 39.969 180.949 45 185.98 
45 192.199 c 45 198.418 39.969 203.449 33.75 203.449 c h
33.75 203.449 m f
33.75 270.949 m 11.25 270.949 l 5.031 270.949 0 265.918 0 259.699 c 0 253.48
 5.031 248.449 11.25 248.449 c 33.75 248.449 l 39.969 248.449 45 253.48 
45 259.699 c 45 265.918 39.969 270.949 33.75 270.949 c h
33.75 270.949 m f
0.6 0.25098 0.180392 rg
372.75 203.449 m 281.25 203.449 l 275.031 203.449 270 198.418 270 192.199
 c 270 185.98 275.031 180.949 281.25 180.949 c 372.75 180.949 l 378.969 
180.949 384 185.98 384 192.199 c 384 198.418 378.969 203.449 372.75 203.449
 c h
372.75 203.449 m f
372.75 135.949 m 281.25 135.949 l 275.031 135.949 270 130.918 270 124.699
 c 270 118.48 275.031 113.449 281.25 113.449 c 372.75 113.449 l 378.969 
113.449 384 118.48 384 124.699 c 384 130.918 378.969 135.949 372.75 135.949
 c h
372.75 135.949 m f
372.75 270.949 m 281.25 270.949 l 275.031 270.949 270 265.918 270 259.699
 c 270 253.48 275.031 248.449 281.25 248.449 c 372.75 248.449 l 378.969 
248.449 384 253.48 384 259.699 c 384 265.918 378.969 270.949 372.75 270.949
 c h
372.75 270.949 m f
1 0.454902 0.34902 rg
289.953 87.445 m 285.273 81.73 271.758 68.449 247.5 68.449 c 223.266 68.449
 209.75 81.723 205.07 87.422 c 203.402 89.434 202.5 91.961 202.5 94.562 
c 191.25 119.605 l 191.25 272.371 l 202.5 304.301 l 202.5 308.312 204.633
 312.012 208.102 314.023 c 211.531 316.047 215.836 316.059 219.309 314.078
 c 227.637 309.344 237.57 305.004 247.5 304.844 c 257.539 304.672 266.598
 308.91 275.691 314.078 c 279.117 316.035 283.426 316.07 286.898 314.023
 c 290.367 312.012 292.5 308.312 292.5 304.301 c 292.5 94.574 l 292.5 91.973
 291.598 89.453 289.953 87.445 c h
289.953 87.445 m f
0.94902 0.294118 0.235294 rg
275.691 314.078 m 279.117 316.035 283.426 316.07 286.898 314.023 c 290.367
 312.012 292.5 308.312 292.5 304.301 c 292.5 94.574 l 292.5 91.969 291.598
 89.453 289.953 87.445 c 285.273 81.73 271.758 68.449 247.5 68.449 c 247.5
 304.844 l 257.539 304.672 266.598 308.91 275.691 314.078 c h
275.691 314.078 m f
1 0.454902 0.34902 rg
199.953 87.445 m 195.273 81.73 181.758 68.449 157.5 68.449 c 133.266 68.449
 119.75 81.723 115.07 87.422 c 113.402 89.434 112.5 91.961 112.5 94.562 
c 101.25 119.605 l 101.25 272.371 l 112.5 304.301 l 112.5 308.312 114.633
 312.012 118.102 314.023 c 121.531 316.047 125.836 316.059 129.309 314.078
 c 137.637 309.344 147.57 305.004 157.5 304.844 c 167.539 304.672 176.598
 308.91 185.691 314.078 c 189.117 316.035 193.426 316.07 196.898 314.023
 c 200.367 312.012 202.5 308.312 202.5 304.301 c 202.5 94.574 l 202.5 91.973
 201.598 89.453 199.953 87.445 c h
199.953 87.445 m f
0.94902 0.294118 0.235294 rg
185.691 314.078 m 189.117 316.035 193.426 316.07 196.898 314.023 c 200.367
 312.012 202.5 308.312 202.5 304.301 c 202.5 94.574 l 202.5 91.969 201.598
 89.453 199.953 87.445 c 195.273 81.73 181.758 68.449 157.5 68.449 c 157.5
 304.844 l 167.539 304.672 176.598 308.91 185.691 314.078 c h
185.691 314.078 m f
1 0.454902 0.34902 rg
109.953 87.445 m 105.273 81.73 91.758 68.449 67.5 68.449 c 43.266 68.449
 29.75 81.723 25.07 87.422 c 23.402 89.434 22.5 91.961 22.5 94.562 c 22.5
 304.301 l 22.5 308.312 24.633 312.012 28.102 314.023 c 31.531 316.047 35.836
 316.059 39.309 314.078 c 47.637 309.344 57.57 305.004 67.5 304.844 c 77.539
 304.672 86.598 308.91 95.691 314.078 c 99.117 316.035 103.426 316.07 106.898
 314.023 c 110.367 312.012 112.5 308.312 112.5 304.301 c 112.5 94.574 l 
112.5 91.973 111.598 89.453 109.953 87.445 c h
109.953 87.445 m f
0.94902 0.294118 0.235294 rg
95.691 314.078 m 99.117 316.035 103.426 316.07 106.898 314.023 c 110.367
 312.012 112.5 308.312 112.5 304.301 c 112.5 94.574 l 112.5 91.969 111.598
 89.453 109.953 87.445 c 105.273 81.73 91.758 68.449 67.5 68.449 c 67.5 
304.844 l 77.539 304.672 86.598 308.91 95.691 314.078 c h
95.691 314.078 m f
258.75 124.699 m 258.75 169.699 l 258.75 175.996 253.801 180.949 247.5 
180.949 c 241.199 180.949 236.25 175.996 236.25 169.699 c 236.25 124.699
 l 236.25 118.398 241.199 113.449 247.5 113.449 c 253.801 113.449 258.75
 118.398 258.75 124.699 c h
258.75 124.699 m f
67.5 113.449 m 61.199 113.449 56.25 118.398 56.25 124.699 c 56.25 214.699
 l 56.25 220.996 61.199 225.949 67.5 225.949 c 73.801 225.949 78.75 220.996
 78.75 214.699 c 78.75 124.699 l 78.75 118.398 73.801 113.449 67.5 113.449
 c h
67.5 113.449 m f
0.8 0.160784 0.266667 rg
78.75 124.699 m 78.75 214.699 l 78.75 220.996 73.801 225.949 67.5 225.949
 c 67.5 113.449 l 73.801 113.449 78.75 118.398 78.75 124.699 c h
78.75 124.699 m f
258.75 124.699 m 258.75 169.699 l 258.75 175.996 253.801 180.949 247.5 
180.949 c 247.5 113.449 l 253.801 113.449 258.75 118.398 258.75 124.699 
c h
258.75 124.699 m f
0.94902 0.294118 0.235294 rg
168.75 192.199 m 168.75 237.199 l 168.75 243.496 163.801 248.449 157.5 
248.449 c 151.199 248.449 146.25 243.496 146.25 237.199 c 146.25 192.199
 l 146.25 185.898 151.199 180.949 157.5 180.949 c 163.801 180.949 168.75
 185.898 168.75 192.199 c h
168.75 192.199 m f
0.8 0.160784 0.266667 rg
168.75 192.199 m 168.75 237.199 l 168.75 243.496 163.801 248.449 157.5 
248.449 c 157.5 180.949 l 163.801 180.949 168.75 185.898 168.75 192.199 
c h
168.75 192.199 m f
Q Q
showpage
%%Trailer
end
%%EOF
