%!PS-Adobe-3.0 EPSF-3.0
%%Creator: cairo 1.16.0 (https://cairographics.org)
%%CreationDate: Thu Apr  8 07:10:21 2021
%%Pages: 1
%%DocumentData: Clean7Bit
%%LanguageLevel: 2
%%BoundingBox: 0 0 384 384
%%EndComments
%%BeginProlog
50 dict begin
/q { gsave } bind def
/Q { grestore } bind def
/cm { 6 array astore concat } bind def
/w { setlinewidth } bind def
/J { setlinecap } bind def
/j { setlinejoin } bind def
/M { setmiterlimit } bind def
/d { setdash } bind def
/m { moveto } bind def
/l { lineto } bind def
/c { curveto } bind def
/h { closepath } bind def
/re { exch dup neg 3 1 roll 5 3 roll moveto 0 rlineto
      0 exch rlineto 0 rlineto closepath } bind def
/S { stroke } bind def
/f { fill } bind def
/f* { eofill } bind def
/n { newpath } bind def
/W { clip } bind def
/W* { eoclip } bind def
/BT { } bind def
/ET { } bind def
/BDC { mark 3 1 roll /BDC pdfmark } bind def
/EMC { mark /EMC pdfmark } bind def
/cairo_store_point { /cairo_point_y exch def /cairo_point_x exch def } def
/Tj { show currentpoint cairo_store_point } bind def
/TJ {
  {
    dup
    type /stringtype eq
    { show } { -0.001 mul 0 cairo_font_matrix dtransform rmoveto } ifelse
  } forall
  currentpoint cairo_store_point
} bind def
/cairo_selectfont { cairo_font_matrix aload pop pop pop 0 0 6 array astore
    cairo_font exch selectfont cairo_point_x cairo_point_y moveto } bind def
/Tf { pop /cairo_font exch def /cairo_font_matrix where
      { pop cairo_selectfont } if } bind def
/Td { matrix translate cairo_font_matrix matrix concatmatrix dup
      /cairo_font_matrix exch def dup 4 get exch 5 get cairo_store_point
      /cairo_font where { pop cairo_selectfont } if } bind def
/Tm { 2 copy 8 2 roll 6 array astore /cairo_font_matrix exch def
      cairo_store_point /cairo_font where { pop cairo_selectfont } if } bind def
/g { setgray } bind def
/rg { setrgbcolor } bind def
/d1 { setcachedevice } bind def
/cairo_data_source {
  CairoDataIndex CairoData length lt
    { CairoData CairoDataIndex get /CairoDataIndex CairoDataIndex 1 add def }
    { () } ifelse
} def
/cairo_flush_ascii85_file { cairo_ascii85_file status { cairo_ascii85_file flushfile } if } def
/cairo_image { image cairo_flush_ascii85_file } def
/cairo_imagemask { imagemask cairo_flush_ascii85_file } def
%%EndProlog
%%BeginSetup
%%EndSetup
%%Page: 1 1
%%BeginPageSetup
%%PageBoundingBox: 0 0 384 384
%%EndPageSetup
q 0 0 384 384 rectclip
1 0 0 -1 0 384 cm q
0.952941 0.960784 0.976471 rg
384 192 m 384 178.871 379.516 166.512 371.234 156.48 c 374.969 144.102 
374.398 130.73 369.434 118.809 c 364.422 106.68 354.797 96.98 343.305 90.883
 c 342.008 78.027 336.359 65.91 327.242 56.77 c 317.949 47.488 306.039 41.918
 293.098 40.688 c 287.012 29.207 277.32 19.578 265.191 14.559 c 253.02 9.539
 239.902 8.945 227.508 12.758 c 217.488 4.484 204.742 0 192 0 c 179.258 
0 166.512 4.484 156.492 12.754 c 144.078 8.941 130.961 9.535 118.809 14.559
 c 106.68 19.578 96.988 29.203 90.902 40.684 c 77.961 41.914 66.031 47.484
 56.758 56.77 c 47.641 65.91 41.992 78.027 40.695 90.883 c 29.203 96.98 
19.578 106.68 14.566 118.797 c 9.602 130.73 9.031 144.102 12.766 156.48 
c 4.484 166.512 0 178.871 0 192 c 0 205.129 4.484 217.488 12.766 227.52 
c 9.031 239.898 9.602 253.27 14.566 265.191 c 19.578 277.32 29.203 287.02
 40.695 293.117 c 41.992 305.973 47.641 318.09 56.758 327.23 c 66.051 336.512
 77.961 342.082 90.902 343.312 c 96.988 354.793 106.68 364.422 118.809 369.441
 c 130.961 374.461 144.078 375.035 156.492 371.242 c 166.512 379.516 178.859
 384 192 384 c 205.141 384 217.488 379.516 227.508 371.246 c 239.898 375.035
 253.02 374.465 265.191 369.441 c 277.32 364.422 287.012 354.797 293.098
 343.316 c 306.039 342.086 317.969 336.516 327.242 327.23 c 336.359 318.09
 342.008 305.973 343.305 293.117 c 354.797 287.02 364.422 277.32 369.434
 265.203 c 374.398 253.27 374.969 239.902 371.234 227.52 c 379.516 217.488
 384 205.129 384 192 c h
384 192 m f
0.882353 0.901961 0.941176 rg
265.191 369.441 m 277.32 364.422 287.012 354.797 293.098 343.316 c 306.039
 342.086 317.969 336.516 327.242 327.23 c 336.359 318.09 342.008 305.973
 343.305 293.117 c 354.797 287.02 364.422 277.32 369.434 265.203 c 374.398
 253.27 374.969 239.902 371.234 227.52 c 379.516 217.488 384 205.129 384
 192 c 384 178.871 379.516 166.512 371.234 156.48 c 374.969 144.102 374.398
 130.73 369.434 118.809 c 364.422 106.68 354.797 96.98 343.305 90.883 c 
342.008 78.027 336.359 65.91 327.242 56.77 c 317.949 47.488 306.039 41.918
 293.098 40.688 c 287.012 29.207 277.32 19.578 265.191 14.559 c 253.02 9.539
 239.902 8.945 227.508 12.758 c 217.488 4.484 204.742 0 192 0 c 192 384 
l 205.141 384 217.488 379.516 227.508 371.246 c 239.898 375.035 253.02 374.465
 265.191 369.441 c h
265.191 369.441 m f
0.301961 0.368627 0.501961 rg
192 113.25 m 148.574 113.25 113.25 148.574 113.25 192 c 113.25 235.426 
148.574 270.75 192 270.75 c 235.426 270.75 270.75 235.426 270.75 192 c 270.75
 148.574 235.426 113.25 192 113.25 c h
192 113.25 m f
0.239216 0.270588 0.4 rg
270.75 192 m 270.75 235.426 235.426 270.75 192 270.75 c 192 113.25 l 235.426
 113.25 270.75 148.574 270.75 192 c h
270.75 192 m f
0.882353 0.901961 0.941176 rg
203.25 57 m 203.25 63.215 198.215 68.25 192 68.25 c 185.785 68.25 180.75
 63.215 180.75 57 c 180.75 50.785 185.785 45.75 192 45.75 c 198.215 45.75
 203.25 50.785 203.25 57 c h
203.25 57 m f
203.25 327 m 203.25 333.215 198.215 338.25 192 338.25 c 185.785 338.25 
180.75 333.215 180.75 327 c 180.75 320.785 185.785 315.75 192 315.75 c 198.215
 315.75 203.25 320.785 203.25 327 c h
203.25 327 m f
160.199 88.062 m 160.199 94.277 155.16 99.312 148.949 99.312 c 142.734 
99.312 137.699 94.277 137.699 88.062 c 137.699 81.852 142.734 76.812 148.949
 76.812 c 155.16 76.812 160.199 81.852 160.199 88.062 c h
160.199 88.062 m f
0.811765 0.843137 0.901961 rg
246.301 295.938 m 246.301 302.148 241.266 307.188 235.051 307.188 c 228.84
 307.188 223.801 302.148 223.801 295.938 c 223.801 289.723 228.84 284.688
 235.051 284.688 c 241.266 284.688 246.301 289.723 246.301 295.938 c h
246.301 295.938 m f
0.882353 0.901961 0.941176 rg
99.312 148.949 m 99.312 155.16 94.277 160.199 88.062 160.199 c 81.852 160.199
 76.812 155.16 76.812 148.949 c 76.812 142.734 81.852 137.699 88.062 137.699
 c 94.277 137.699 99.312 142.734 99.312 148.949 c h
99.312 148.949 m f
0.811765 0.843137 0.901961 rg
307.188 235.051 m 307.188 241.266 302.148 246.301 295.938 246.301 c 289.723
 246.301 284.688 241.266 284.688 235.051 c 284.688 228.84 289.723 223.801
 295.938 223.801 c 302.148 223.801 307.188 228.84 307.188 235.051 c h
307.188 235.051 m f
0.882353 0.901961 0.941176 rg
99.312 235.051 m 99.312 241.266 94.277 246.301 88.062 246.301 c 81.852 
246.301 76.812 241.266 76.812 235.051 c 76.812 228.84 81.852 223.801 88.062
 223.801 c 94.277 223.801 99.312 228.84 99.312 235.051 c h
99.312 235.051 m f
0.811765 0.843137 0.901961 rg
307.188 148.949 m 307.188 155.16 302.148 160.199 295.938 160.199 c 289.723
 160.199 284.688 155.16 284.688 148.949 c 284.688 142.734 289.723 137.699
 295.938 137.699 c 302.148 137.699 307.188 142.734 307.188 148.949 c h
307.188 148.949 m f
0.882353 0.901961 0.941176 rg
160.199 295.938 m 160.199 302.148 155.16 307.188 148.949 307.188 c 142.734
 307.188 137.699 302.148 137.699 295.938 c 137.699 289.723 142.734 284.688
 148.949 284.688 c 155.16 284.688 160.199 289.723 160.199 295.938 c h
160.199 295.938 m f
0.811765 0.843137 0.901961 rg
246.301 88.062 m 246.301 94.277 241.266 99.312 235.051 99.312 c 228.84 
99.312 223.801 94.277 223.801 88.062 c 223.801 81.852 228.84 76.812 235.051
 76.812 c 241.266 76.812 246.301 81.852 246.301 88.062 c h
246.301 88.062 m f
0.882353 0.901961 0.941176 rg
107.789 96.539 m 107.789 102.754 102.754 107.789 96.539 107.789 c 90.328
 107.789 85.289 102.754 85.289 96.539 c 85.289 90.328 90.328 85.289 96.539
 85.289 c 102.754 85.289 107.789 90.328 107.789 96.539 c h
107.789 96.539 m f
0.811765 0.843137 0.901961 rg
298.711 287.461 m 298.711 293.672 293.672 298.711 287.461 298.711 c 281.246
 298.711 276.211 293.672 276.211 287.461 c 276.211 281.246 281.246 276.211
 287.461 276.211 c 293.672 276.211 298.711 281.246 298.711 287.461 c h
298.711 287.461 m f
0.882353 0.901961 0.941176 rg
68.25 192 m 68.25 198.215 63.215 203.25 57 203.25 c 50.785 203.25 45.75
 198.215 45.75 192 c 45.75 185.785 50.785 180.75 57 180.75 c 63.215 180.75
 68.25 185.785 68.25 192 c h
68.25 192 m f
0.811765 0.843137 0.901961 rg
338.25 192 m 338.25 198.215 333.215 203.25 327 203.25 c 320.785 203.25 
315.75 198.215 315.75 192 c 315.75 185.785 320.785 180.75 327 180.75 c 333.215
 180.75 338.25 185.785 338.25 192 c h
338.25 192 m f
0.882353 0.901961 0.941176 rg
107.789 287.461 m 107.789 293.672 102.754 298.711 96.539 298.711 c 90.328
 298.711 85.289 293.672 85.289 287.461 c 85.289 281.246 90.328 276.211 96.539
 276.211 c 102.754 276.211 107.789 281.246 107.789 287.461 c h
107.789 287.461 m f
0.811765 0.843137 0.901961 rg
298.711 96.539 m 298.711 102.754 293.672 107.789 287.461 107.789 c 281.246
 107.789 276.211 102.754 276.211 96.539 c 276.211 90.328 281.246 85.289 
287.461 85.289 c 293.672 85.289 298.711 90.328 298.711 96.539 c h
298.711 96.539 m f
0.94902 0.294118 0.235294 rg
233.941 154.891 m 214.492 160.07 l 214.586 140.562 l 208.312 137.797 201.43
 136.184 194.211 135.898 c 193.461 135.867 192.758 135.75 192 135.75 c 171.953
 148.848 l 169.617 140.453 l 149.715 149.129 135.75 168.945 135.75 192 c
 150.195 203.25 l 236.172 203.25 l 248.25 192 l 248.25 177.723 242.738 164.82
 233.941 154.891 c h
233.941 154.891 m f
0.8 0.160784 0.266667 rg
248.25 192 m 248.25 177.723 242.738 164.82 233.941 154.891 c 214.492 160.07
 l 214.586 140.562 l 208.312 137.797 201.43 136.184 194.211 135.898 c 193.461
 135.867 192.758 135.75 192 135.75 c 192 203.25 l 236.172 203.25 l h
248.25 192 m f
1 0.454902 0.34902 rg
192 135.75 m 184.039 135.75 176.484 137.457 169.617 140.453 c 152.129 203.25
 l 175.477 203.25 l 194.211 135.898 l 193.461 135.867 192.758 135.75 192
 135.75 c h
192 135.75 m f
0.94902 0.294118 0.235294 rg
214.586 140.562 m 197.129 203.25 l 220.477 203.25 l 233.941 154.891 l 228.586
 148.84 222.078 143.867 214.586 140.562 c h
214.586 140.562 m f
0.811765 0.843137 0.901961 rg
203.25 327 m 203.25 333.301 198.301 338.25 192 338.25 c 192 315.75 l 198.301
 315.75 203.25 320.699 203.25 327 c h
203.25 327 m f
192 68.25 m 192 45.75 l 198.301 45.75 203.25 50.699 203.25 57 c 203.25 
63.301 198.301 68.25 192 68.25 c h
192 68.25 m f
0.701961 0.388235 0.282353 rg
192 192 m 135.75 192 l 135.75 223.016 160.977 248.25 192 248.25 c 223.023
 248.25 248.25 223.016 248.25 192 c h
192 192 m f
0.6 0.25098 0.180392 rg
248.25 192 m 192 192 l 192 248.25 l 223.023 248.25 248.25 223.016 248.25
 192 c h
248.25 192 m f
Q Q
showpage
%%Trailer
end
%%EOF
