%!PS-Adobe-3.0 EPSF-3.0
%%Creator: cairo 1.16.0 (https://cairographics.org)
%%CreationDate: Thu Apr  8 07:10:26 2021
%%Pages: 1
%%DocumentData: Clean7Bit
%%LanguageLevel: 2
%%BoundingBox: 0 12 384 372
%%EndComments
%%BeginProlog
50 dict begin
/q { gsave } bind def
/Q { grestore } bind def
/cm { 6 array astore concat } bind def
/w { setlinewidth } bind def
/J { setlinecap } bind def
/j { setlinejoin } bind def
/M { setmiterlimit } bind def
/d { setdash } bind def
/m { moveto } bind def
/l { lineto } bind def
/c { curveto } bind def
/h { closepath } bind def
/re { exch dup neg 3 1 roll 5 3 roll moveto 0 rlineto
      0 exch rlineto 0 rlineto closepath } bind def
/S { stroke } bind def
/f { fill } bind def
/f* { eofill } bind def
/n { newpath } bind def
/W { clip } bind def
/W* { eoclip } bind def
/BT { } bind def
/ET { } bind def
/BDC { mark 3 1 roll /BDC pdfmark } bind def
/EMC { mark /EMC pdfmark } bind def
/cairo_store_point { /cairo_point_y exch def /cairo_point_x exch def } def
/Tj { show currentpoint cairo_store_point } bind def
/TJ {
  {
    dup
    type /stringtype eq
    { show } { -0.001 mul 0 cairo_font_matrix dtransform rmoveto } ifelse
  } forall
  currentpoint cairo_store_point
} bind def
/cairo_selectfont { cairo_font_matrix aload pop pop pop 0 0 6 array astore
    cairo_font exch selectfont cairo_point_x cairo_point_y moveto } bind def
/Tf { pop /cairo_font exch def /cairo_font_matrix where
      { pop cairo_selectfont } if } bind def
/Td { matrix translate cairo_font_matrix matrix concatmatrix dup
      /cairo_font_matrix exch def dup 4 get exch 5 get cairo_store_point
      /cairo_font where { pop cairo_selectfont } if } bind def
/Tm { 2 copy 8 2 roll 6 array astore /cairo_font_matrix exch def
      cairo_store_point /cairo_font where { pop cairo_selectfont } if } bind def
/g { setgray } bind def
/rg { setrgbcolor } bind def
/d1 { setcachedevice } bind def
/cairo_data_source {
  CairoDataIndex CairoData length lt
    { CairoData CairoDataIndex get /CairoDataIndex CairoDataIndex 1 add def }
    { () } ifelse
} def
/cairo_flush_ascii85_file { cairo_ascii85_file status { cairo_ascii85_file flushfile } if } def
/cairo_image { image cairo_flush_ascii85_file } def
/cairo_imagemask { imagemask cairo_flush_ascii85_file } def
%%EndProlog
%%BeginSetup
%%EndSetup
%%Page: 1 1
%%BeginPageSetup
%%PageBoundingBox: 0 12 384 372
%%EndPageSetup
q 0 12 384 360 rectclip
1 0 0 -1 0 384 cm q
1 0.74902 0.25098 rg
192 225.75 m 0 225.75 l 0 293.25 l 0 336.668 35.332 372 78.75 372 c 305.25
 372 l 348.668 372 384 336.668 384 293.25 c 384 225.75 l h
192 225.75 m f
1 0.6 0.2 rg
384 293.25 m 384 225.75 l 192 225.75 l 192 372 l 305.25 372 l 348.668 372
 384 336.668 384 293.25 c h
384 293.25 m f
1 0.882353 0.298039 rg
305.25 147 m 78.75 147 l 35.332 147 0 182.332 0 225.75 c 0 269.168 35.332
 304.5 78.75 304.5 c 305.25 304.5 l 348.668 304.5 384 269.168 384 225.75
 c 384 182.332 348.668 147 305.25 147 c h
305.25 147 m f
1 0.74902 0.25098 rg
384 225.75 m 384 182.332 348.668 147 305.25 147 c 192 147 l 192 304.5 l
 305.25 304.5 l 348.668 304.5 384 269.168 384 225.75 c h
384 225.75 m f
0.882353 0.901961 0.941176 rg
274.047 121.414 m 269.652 117.027 269.652 109.898 274.047 105.504 c 284.375
 95.176 284.375 86.738 274.047 76.414 c 254.996 57.34 254.996 34.367 274.047
 15.297 c 278.441 10.902 285.559 10.902 289.953 15.297 c 294.348 19.68 294.348
 26.809 289.953 31.203 c 279.629 41.531 279.629 50.18 289.953 60.504 c 309.004
 79.578 309.004 102.34 289.953 121.414 c 285.559 125.809 278.441 125.809
 274.047 121.414 c h
274.047 121.414 m f
94.047 121.414 m 89.652 117.027 89.652 109.898 94.047 105.504 c 104.375
 95.176 104.375 86.738 94.047 76.414 c 74.996 57.34 74.996 34.367 94.047
 15.297 c 98.441 10.902 105.559 10.902 109.953 15.297 c 114.348 19.68 114.348
 26.809 109.953 31.203 c 99.629 41.531 99.629 50.18 109.953 60.504 c 129.004
 79.578 129.004 102.34 109.953 121.414 c 105.559 125.809 98.441 125.809 
94.047 121.414 c h
94.047 121.414 m f
199.953 60.504 m 189.625 50.176 189.625 41.531 199.953 31.203 c 204.348
 26.809 204.348 19.68 199.953 15.297 c 195.559 10.902 188.441 10.902 184.047
 15.297 c 164.996 34.367 164.996 57.34 184.047 76.414 c 194.371 86.742 194.371
 95.18 184.047 105.504 c 179.652 109.898 179.652 117.027 184.047 121.414
 c 188.441 125.809 195.559 125.809 199.953 121.414 c 219.004 102.34 219.004
 79.578 199.953 60.504 c h
199.953 60.504 m f
0.701961 0.388235 0.282353 rg
305.25 169.5 m 123.75 169.5 l 105.141 169.5 90 184.641 90 203.25 c 90 221.859
 105.141 237 123.75 237 c 282.75 237 l 288.945 237 294 231.957 294 225.75
 c 294 219.543 288.945 214.5 282.75 214.5 c 146.25 214.5 l 140.031 214.5
 135 209.469 135 203.25 c 135 197.031 140.031 192 146.25 192 c 282.75 192
 l 301.359 192 316.5 207.141 316.5 225.75 c 316.5 244.359 301.359 259.5 
282.75 259.5 c 123.75 259.5 l 92.727 259.5 67.5 234.266 67.5 203.25 c 67.5
 190.539 71.898 178.93 79.035 169.5 c 78.75 169.5 l 47.727 169.5 22.5 194.734
 22.5 225.75 c 22.5 256.766 47.727 282 78.75 282 c 305.25 282 l 336.273 
282 361.5 256.766 361.5 225.75 c 361.5 194.734 336.273 169.5 305.25 169.5
 c h
305.25 169.5 m f
0.6 0.25098 0.180392 rg
294 225.75 m 294 219.543 288.945 214.5 282.75 214.5 c 192 214.5 l 192 237
 l 282.75 237 l 288.945 237 294 231.957 294 225.75 c h
294 225.75 m f
361.5 225.75 m 361.5 194.734 336.273 169.5 305.25 169.5 c 192 169.5 l 192
 192 l 282.75 192 l 301.359 192 316.5 207.141 316.5 225.75 c 316.5 244.359
 301.359 259.5 282.75 259.5 c 192 259.5 l 192 282 l 305.25 282 l 336.273
 282 361.5 256.766 361.5 225.75 c h
361.5 225.75 m f
Q Q
showpage
%%Trailer
end
%%EOF
