%!PS-Adobe-3.0 EPSF-3.0
%%Creator: cairo 1.16.0 (https://cairographics.org)
%%CreationDate: Thu Apr  8 07:10:26 2021
%%Pages: 1
%%DocumentData: Clean7Bit
%%LanguageLevel: 2
%%BoundingBox: 0 0 384 384
%%EndComments
%%BeginProlog
50 dict begin
/q { gsave } bind def
/Q { grestore } bind def
/cm { 6 array astore concat } bind def
/w { setlinewidth } bind def
/J { setlinecap } bind def
/j { setlinejoin } bind def
/M { setmiterlimit } bind def
/d { setdash } bind def
/m { moveto } bind def
/l { lineto } bind def
/c { curveto } bind def
/h { closepath } bind def
/re { exch dup neg 3 1 roll 5 3 roll moveto 0 rlineto
      0 exch rlineto 0 rlineto closepath } bind def
/S { stroke } bind def
/f { fill } bind def
/f* { eofill } bind def
/n { newpath } bind def
/W { clip } bind def
/W* { eoclip } bind def
/BT { } bind def
/ET { } bind def
/BDC { mark 3 1 roll /BDC pdfmark } bind def
/EMC { mark /EMC pdfmark } bind def
/cairo_store_point { /cairo_point_y exch def /cairo_point_x exch def } def
/Tj { show currentpoint cairo_store_point } bind def
/TJ {
  {
    dup
    type /stringtype eq
    { show } { -0.001 mul 0 cairo_font_matrix dtransform rmoveto } ifelse
  } forall
  currentpoint cairo_store_point
} bind def
/cairo_selectfont { cairo_font_matrix aload pop pop pop 0 0 6 array astore
    cairo_font exch selectfont cairo_point_x cairo_point_y moveto } bind def
/Tf { pop /cairo_font exch def /cairo_font_matrix where
      { pop cairo_selectfont } if } bind def
/Td { matrix translate cairo_font_matrix matrix concatmatrix dup
      /cairo_font_matrix exch def dup 4 get exch 5 get cairo_store_point
      /cairo_font where { pop cairo_selectfont } if } bind def
/Tm { 2 copy 8 2 roll 6 array astore /cairo_font_matrix exch def
      cairo_store_point /cairo_font where { pop cairo_selectfont } if } bind def
/g { setgray } bind def
/rg { setrgbcolor } bind def
/d1 { setcachedevice } bind def
/cairo_data_source {
  CairoDataIndex CairoData length lt
    { CairoData CairoDataIndex get /CairoDataIndex CairoDataIndex 1 add def }
    { () } ifelse
} def
/cairo_flush_ascii85_file { cairo_ascii85_file status { cairo_ascii85_file flushfile } if } def
/cairo_image { image cairo_flush_ascii85_file } def
/cairo_imagemask { imagemask cairo_flush_ascii85_file } def
%%EndProlog
%%BeginSetup
%%EndSetup
%%Page: 1 1
%%BeginPageSetup
%%PageBoundingBox: 0 0 384 384
%%EndPageSetup
q 0 0 384 384 rectclip
1 0 0 -1 0 384 cm q
0.301961 0.368627 0.501961 rg
384 192 m 384 298.039 298.039 384 192 384 c 85.961 384 0 298.039 0 192 
c 0 85.961 85.961 0 192 0 c 298.039 0 384 85.961 384 192 c h
384 192 m f
0.239216 0.270588 0.4 rg
384 192 m 384 86.543 297.445 0 192 0 c 192 384 l 297.445 384 384 297.457
 384 192 c h
384 192 m f
0.8 0.427451 0.239216 rg
192 45.75 m 139.992 45.75 94.359 73.125 68.422 114.137 c 77.633 171.383
 l 46.656 207.91 l 54.617 281.086 116.738 338.25 192 338.25 c 203.25 323.387
 l 203.25 61.203 l h
192 45.75 m f
0.701961 0.388235 0.282353 rg
113.25 214.5 m 113.25 169.5 l 113.25 166.773 112.262 164.141 110.461 162.086
 c 68.422 114.137 l 54.145 136.715 45.75 163.367 45.75 192 c 45.75 197.379
 46.086 202.676 46.656 207.91 c 98.441 225.168 l 105.574 227.59 113.25 222.277
 113.25 214.5 c h
113.25 214.5 m f
1 0.882353 0.298039 rg
214.5 225.75 m 192 203.25 l 147 203.25 l 142.738 203.25 138.848 205.656
 136.938 209.469 c 114.438 254.469 l 111.332 260.723 114.574 268.07 120.941
 270.168 c 206.961 298.844 l 218.059 271.332 l h
214.5 225.75 m f
1 0.454902 0.34902 rg
180.75 90.75 m 155.941 90.75 135.75 110.934 135.75 135.75 c 135.75 160.566
 155.941 180.75 180.75 180.75 c 185.891 180.75 190.922 179.883 195.734 178.191
 c 195.734 93.309 l 190.922 91.617 185.891 90.75 180.75 90.75 c h
180.75 90.75 m f
0.882353 0.901961 0.941176 rg
265.125 318.66 m 276.551 312.059 285.078 301.895 289.625 289.625 c 301.887
 285.086 312.059 276.562 318.648 265.125 c 325.266 253.688 327.57 240.625
 325.352 227.727 c 333.723 217.664 338.25 205.195 338.25 192 c 338.25 178.805
 333.723 166.336 325.352 156.273 c 327.57 143.375 325.266 130.312 318.648
 118.875 c 312.035 107.426 301.883 98.902 289.625 94.375 c 285.078 82.105
 276.551 71.941 265.125 65.34 c 253.676 58.758 240.625 56.461 227.727 58.648
 c 217.688 50.289 205.207 45.75 192 45.75 c 192 338.25 l 205.207 338.25 
217.688 333.711 227.727 325.352 c 240.625 327.559 253.676 325.266 265.125
 318.66 c h
265.125 318.66 m f
0.811765 0.843137 0.901961 rg
293.25 192 m 293.25 198.215 288.215 203.25 282 203.25 c 275.785 203.25 
270.75 198.215 270.75 192 c 270.75 185.785 275.785 180.75 282 180.75 c 288.215
 180.75 293.25 185.785 293.25 192 c h
293.25 192 m f
270.75 237 m 270.75 243.215 265.715 248.25 259.5 248.25 c 253.285 248.25
 248.25 243.215 248.25 237 c 248.25 230.785 253.285 225.75 259.5 225.75 
c 265.715 225.75 270.75 230.785 270.75 237 c h
270.75 237 m f
248.25 124.5 m 248.25 130.715 243.215 135.75 237 135.75 c 230.785 135.75
 225.75 130.715 225.75 124.5 c 225.75 118.285 230.785 113.25 237 113.25 
c 243.215 113.25 248.25 118.285 248.25 124.5 c h
248.25 124.5 m f
248.25 169.5 m 248.25 175.715 243.215 180.75 237 180.75 c 230.785 180.75
 225.75 175.715 225.75 169.5 c 225.75 163.285 230.785 158.25 237 158.25 
c 243.215 158.25 248.25 163.285 248.25 169.5 c h
248.25 169.5 m f
Q Q
showpage
%%Trailer
end
%%EOF
