%!PS-Adobe-3.0 EPSF-3.0
%%Creator: cairo 1.16.0 (https://cairographics.org)
%%CreationDate: Thu Apr  8 07:10:27 2021
%%Pages: 1
%%DocumentData: Clean7Bit
%%LanguageLevel: 2
%%BoundingBox: 0 0 384 384
%%EndComments
%%BeginProlog
50 dict begin
/q { gsave } bind def
/Q { grestore } bind def
/cm { 6 array astore concat } bind def
/w { setlinewidth } bind def
/J { setlinecap } bind def
/j { setlinejoin } bind def
/M { setmiterlimit } bind def
/d { setdash } bind def
/m { moveto } bind def
/l { lineto } bind def
/c { curveto } bind def
/h { closepath } bind def
/re { exch dup neg 3 1 roll 5 3 roll moveto 0 rlineto
      0 exch rlineto 0 rlineto closepath } bind def
/S { stroke } bind def
/f { fill } bind def
/f* { eofill } bind def
/n { newpath } bind def
/W { clip } bind def
/W* { eoclip } bind def
/BT { } bind def
/ET { } bind def
/BDC { mark 3 1 roll /BDC pdfmark } bind def
/EMC { mark /EMC pdfmark } bind def
/cairo_store_point { /cairo_point_y exch def /cairo_point_x exch def } def
/Tj { show currentpoint cairo_store_point } bind def
/TJ {
  {
    dup
    type /stringtype eq
    { show } { -0.001 mul 0 cairo_font_matrix dtransform rmoveto } ifelse
  } forall
  currentpoint cairo_store_point
} bind def
/cairo_selectfont { cairo_font_matrix aload pop pop pop 0 0 6 array astore
    cairo_font exch selectfont cairo_point_x cairo_point_y moveto } bind def
/Tf { pop /cairo_font exch def /cairo_font_matrix where
      { pop cairo_selectfont } if } bind def
/Td { matrix translate cairo_font_matrix matrix concatmatrix dup
      /cairo_font_matrix exch def dup 4 get exch 5 get cairo_store_point
      /cairo_font where { pop cairo_selectfont } if } bind def
/Tm { 2 copy 8 2 roll 6 array astore /cairo_font_matrix exch def
      cairo_store_point /cairo_font where { pop cairo_selectfont } if } bind def
/g { setgray } bind def
/rg { setrgbcolor } bind def
/d1 { setcachedevice } bind def
/cairo_data_source {
  CairoDataIndex CairoData length lt
    { CairoData CairoDataIndex get /CairoDataIndex CairoDataIndex 1 add def }
    { () } ifelse
} def
/cairo_flush_ascii85_file { cairo_ascii85_file status { cairo_ascii85_file flushfile } if } def
/cairo_image { image cairo_flush_ascii85_file } def
/cairo_imagemask { imagemask cairo_flush_ascii85_file } def
%%EndProlog
%%BeginSetup
%%EndSetup
%%Page: 1 1
%%BeginPageSetup
%%PageBoundingBox: 0 0 384 384
%%EndPageSetup
q 0 0 384 384 rectclip
1 0 0 -1 0 384 cm q
0.901961 0.580392 0.360784 rg
384 192 m 384 298.039 298.039 384 192 384 c 85.961 384 0 298.039 0 192 
c 0 85.961 85.961 0 192 0 c 298.039 0 384 85.961 384 192 c h
384 192 m f
0.8 0.427451 0.239216 rg
384 192 m 384 86.543 297.445 0 192 0 c 192 384 l 297.445 384 384 297.457
 384 192 c h
384 192 m f
0.701961 0.388235 0.282353 rg
327.109 178.488 m 332.82 167.312 334.207 156.359 331.086 146.836 c 328.012
 137.277 320.453 129.215 309.246 123.512 c 300.875 119.281 294.789 110.91
 293.359 101.648 c 291.426 89.258 286.086 79.586 277.957 73.688 c 269.828
 67.777 259.039 65.691 246.602 67.691 c 237.395 69.141 227.508 65.977 220.895
 59.34 c 212.062 50.453 202.031 46.012 192 46.012 c 181.969 46.012 171.938
 50.453 163.105 59.328 c 156.492 65.977 146.715 69.141 137.398 67.691 c 
125.051 65.68 114.195 67.766 106.043 73.676 c 97.914 79.586 92.574 89.254
 90.641 101.66 c 89.211 110.91 83.125 119.281 74.73 123.523 c 63.547 129.215
 55.988 137.277 52.914 146.801 c 49.793 156.359 51.18 167.312 56.891 178.488
 c 61.176 186.824 61.176 197.176 56.891 205.512 c 51.18 216.684 49.793 227.641
 52.914 237.164 c 55.988 246.723 63.547 254.785 74.754 260.488 c 83.125 
264.719 89.211 273.09 90.641 282.352 c 92.574 294.742 97.914 304.41 106.043
 310.312 c 114.172 316.234 125.004 318.352 137.398 316.309 c 146.648 314.836
 156.492 318.035 163.105 324.66 c 171.938 333.547 181.914 338.25 192 338.25
 c 202.086 338.25 212.062 333.547 220.895 324.66 c 227.484 318.047 237.152
 314.848 246.602 316.309 c 258.949 318.309 269.805 316.234 277.957 310.324
 c 286.086 304.414 291.426 294.746 293.359 282.34 c 294.789 273.09 300.875
 264.719 309.27 260.477 c 320.453 254.785 328.012 246.723 331.086 237.199
 c 334.207 227.641 332.82 216.688 327.109 205.512 c 322.824 197.176 322.824
 186.824 327.109 178.488 c h
327.109 178.488 m f
0.6 0.25098 0.180392 rg
246.602 316.309 m 258.949 318.309 269.805 316.234 277.957 310.324 c 286.086
 304.414 291.426 294.746 293.359 282.34 c 294.789 273.09 300.875 264.719
 309.27 260.477 c 320.453 254.785 328.012 246.723 331.086 237.199 c 334.207
 227.641 332.824 216.688 327.109 205.512 c 322.824 197.176 322.824 186.824
 327.109 178.488 c 332.824 167.316 334.207 156.359 331.086 146.836 c 328.012
 137.277 320.453 129.215 309.246 123.512 c 300.875 119.281 294.789 110.91
 293.359 101.648 c 291.426 89.258 286.086 79.59 277.957 73.688 c 269.828
 67.777 259.039 65.691 246.602 67.691 c 237.395 69.141 227.508 65.977 220.895
 59.34 c 212.062 50.453 202.031 46.012 192 46.012 c 192 338.25 l 202.086
 338.25 212.062 333.547 220.895 324.66 c 227.484 318.047 237.152 314.848
 246.602 316.309 c h
246.602 316.309 m f
0.952941 0.960784 0.976471 rg
259.5 203.25 m 265.801 203.25 270.75 198.301 270.75 192 c 270.75 185.699
 265.801 180.75 259.5 180.75 c 248.25 180.75 l 248.25 158.25 l 259.5 158.25
 l 265.801 158.25 270.75 153.301 270.75 147 c 270.75 140.699 265.801 135.75
 259.5 135.75 c 248.25 135.75 l 248.25 124.5 l 248.25 118.199 243.301 113.25
 237 113.25 c 230.699 113.25 225.75 118.199 225.75 124.5 c 225.75 135.75
 l 203.25 135.75 l 203.25 102 l 203.25 95.699 198.301 90.75 192 90.75 c 
185.699 90.75 180.75 95.699 180.75 102 c 180.75 135.75 l 158.25 135.75 l
 158.25 124.5 l 158.25 118.199 153.301 113.25 147 113.25 c 140.699 113.25
 135.75 118.199 135.75 124.5 c 135.75 135.75 l 124.5 135.75 l 118.199 135.75
 113.25 140.699 113.25 147 c 113.25 153.301 118.199 158.25 124.5 158.25 
c 135.75 158.25 l 135.75 180.75 l 124.5 180.75 l 118.199 180.75 113.25 185.699
 113.25 192 c 113.25 198.301 118.199 203.25 124.5 203.25 c 135.75 203.25
 l 135.75 225.75 l 124.5 225.75 l 118.199 225.75 113.25 230.699 113.25 237
 c 113.25 243.301 118.199 248.25 124.5 248.25 c 135.75 248.25 l 135.75 259.5
 l 135.75 265.801 140.699 270.75 147 270.75 c 153.301 270.75 158.25 265.801
 158.25 259.5 c 158.25 248.25 l 180.75 248.25 l 180.75 282 l 180.75 288.301
 185.699 293.25 192 293.25 c 198.301 293.25 203.25 288.301 203.25 282 c 
203.25 248.25 l 225.75 248.25 l 225.75 259.5 l 225.75 265.801 230.699 270.75
 237 270.75 c 243.301 270.75 248.25 265.801 248.25 259.5 c 248.25 248.25
 l 259.5 248.25 l 265.801 248.25 270.75 243.301 270.75 237 c 270.75 230.699
 265.801 225.75 259.5 225.75 c 248.25 225.75 l 248.25 203.25 l h
180.75 225.75 m 158.25 225.75 l 158.25 203.25 l 180.75 203.25 l h
180.75 180.75 m 158.25 180.75 l 158.25 158.25 l 180.75 158.25 l h
225.75 225.75 m 203.25 225.75 l 203.25 203.25 l 225.75 203.25 l h
225.75 180.75 m 203.25 180.75 l 203.25 158.25 l 225.75 158.25 l h
225.75 180.75 m f
0.882353 0.901961 0.941176 rg
259.5 203.25 m 265.801 203.25 270.75 198.301 270.75 192 c 270.75 185.699
 265.801 180.75 259.5 180.75 c 248.25 180.75 l 248.25 158.25 l 259.5 158.25
 l 265.801 158.25 270.75 153.301 270.75 147 c 270.75 140.699 265.801 135.75
 259.5 135.75 c 248.25 135.75 l 248.25 124.5 l 248.25 118.199 243.301 113.25
 237 113.25 c 230.699 113.25 225.75 118.199 225.75 124.5 c 225.75 135.75
 l 203.25 135.75 l 203.25 102 l 203.25 95.699 198.301 90.75 192 90.75 c 
192 293.25 l 198.301 293.25 203.25 288.301 203.25 282 c 203.25 248.25 l 
225.75 248.25 l 225.75 259.5 l 225.75 265.801 230.699 270.75 237 270.75 
c 243.301 270.75 248.25 265.801 248.25 259.5 c 248.25 248.25 l 259.5 248.25
 l 265.801 248.25 270.75 243.301 270.75 237 c 270.75 230.699 265.801 225.75
 259.5 225.75 c 248.25 225.75 l 248.25 203.25 l h
225.75 225.75 m 203.25 225.75 l 203.25 203.25 l 225.75 203.25 l h
225.75 180.75 m 203.25 180.75 l 203.25 158.25 l 225.75 158.25 l h
225.75 180.75 m f
Q Q
showpage
%%Trailer
end
%%EOF
