%!PS-Adobe-3.0 EPSF-3.0
%%Creator: cairo 1.16.0 (https://cairographics.org)
%%CreationDate: Thu Apr  8 07:10:28 2021
%%Pages: 1
%%DocumentData: Clean7Bit
%%LanguageLevel: 2
%%BoundingBox: 0 0 384 384
%%EndComments
%%BeginProlog
50 dict begin
/q { gsave } bind def
/Q { grestore } bind def
/cm { 6 array astore concat } bind def
/w { setlinewidth } bind def
/J { setlinecap } bind def
/j { setlinejoin } bind def
/M { setmiterlimit } bind def
/d { setdash } bind def
/m { moveto } bind def
/l { lineto } bind def
/c { curveto } bind def
/h { closepath } bind def
/re { exch dup neg 3 1 roll 5 3 roll moveto 0 rlineto
      0 exch rlineto 0 rlineto closepath } bind def
/S { stroke } bind def
/f { fill } bind def
/f* { eofill } bind def
/n { newpath } bind def
/W { clip } bind def
/W* { eoclip } bind def
/BT { } bind def
/ET { } bind def
/BDC { mark 3 1 roll /BDC pdfmark } bind def
/EMC { mark /EMC pdfmark } bind def
/cairo_store_point { /cairo_point_y exch def /cairo_point_x exch def } def
/Tj { show currentpoint cairo_store_point } bind def
/TJ {
  {
    dup
    type /stringtype eq
    { show } { -0.001 mul 0 cairo_font_matrix dtransform rmoveto } ifelse
  } forall
  currentpoint cairo_store_point
} bind def
/cairo_selectfont { cairo_font_matrix aload pop pop pop 0 0 6 array astore
    cairo_font exch selectfont cairo_point_x cairo_point_y moveto } bind def
/Tf { pop /cairo_font exch def /cairo_font_matrix where
      { pop cairo_selectfont } if } bind def
/Td { matrix translate cairo_font_matrix matrix concatmatrix dup
      /cairo_font_matrix exch def dup 4 get exch 5 get cairo_store_point
      /cairo_font where { pop cairo_selectfont } if } bind def
/Tm { 2 copy 8 2 roll 6 array astore /cairo_font_matrix exch def
      cairo_store_point /cairo_font where { pop cairo_selectfont } if } bind def
/g { setgray } bind def
/rg { setrgbcolor } bind def
/d1 { setcachedevice } bind def
/cairo_data_source {
  CairoDataIndex CairoData length lt
    { CairoData CairoDataIndex get /CairoDataIndex CairoDataIndex 1 add def }
    { () } ifelse
} def
/cairo_flush_ascii85_file { cairo_ascii85_file status { cairo_ascii85_file flushfile } if } def
/cairo_image { image cairo_flush_ascii85_file } def
/cairo_imagemask { imagemask cairo_flush_ascii85_file } def
%%EndProlog
%%BeginSetup
%%EndSetup
%%Page: 1 1
%%BeginPageSetup
%%PageBoundingBox: 0 0 384 384
%%EndPageSetup
q 0 0 384 384 rectclip
1 0 0 -1 0 384 cm q
0.952941 0.960784 0.976471 rg
372.75 248.25 m 213.75 248.25 l 207.449 248.25 202.5 253.199 202.5 259.5
 c 202.5 304.5 l 202.5 328.801 218.023 350.176 240.977 357.824 c 244.801
 359.176 247.5 363.676 247.5 368.625 c 247.5 372.75 l 247.5 379.051 252.449
 384 258.75 384 c 327.75 384 l 334.051 384 339 379.051 339 372.75 c 339 
368.625 l 339 363.676 341.699 359.176 345.523 357.824 c 368.477 350.176 
384 328.801 384 304.5 c 384 259.5 l 384 253.199 379.051 248.25 372.75 248.25
 c h
372.75 248.25 m f
0.882353 0.901961 0.941176 rg
384 259.5 m 384 304.5 l 384 328.801 368.477 350.176 345.523 357.824 c 341.699
 359.176 339 363.676 339 368.625 c 339 372.75 l 339 379.051 334.051 384 
327.75 384 c 293.25 384 l 293.25 248.25 l 372.75 248.25 l 379.051 248.25
 384 253.199 384 259.5 c h
384 259.5 m f
0.952941 0.960784 0.976471 rg
146.25 0 m 33.75 0 l 27.531 0 22.5 5.031 22.5 11.25 c 22.5 24.434 l 22.5
 40.605 26.91 55.398 35.016 68.25 c 56.012 75 l 121.027 75 l 144.984 68.25
 l 153.09 55.398 157.5 40.605 157.5 24.434 c 157.5 11.25 l 157.5 5.031 152.469
 0 146.25 0 c h
146.25 0 m f
0.882353 0.901961 0.941176 rg
144.984 68.25 m 153.09 55.398 157.5 40.605 157.5 24.434 c 157.5 11.25 l
 157.5 5.031 152.469 0 146.25 0 c 90 0 l 90 75 l 121.027 75 l h
144.984 68.25 m f
0.952941 0.960784 0.976471 rg
140.852 90.75 m 117.117 84 l 59.922 84 l 39.148 90.75 l 13.262 161.613 
0 237.68 0 313.168 c 0 372.75 l 0 378.969 5.031 384 11.25 384 c 168.75 384
 l 174.969 384 180 378.969 180 372.75 c 180 313.168 l 180 237.68 166.738
 161.613 140.852 90.75 c h
140.852 90.75 m f
0.882353 0.901961 0.941176 rg
180 372.75 m 180 313.168 l 180 237.684 166.738 161.613 140.852 90.75 c 
117.117 84 l 90 84 l 90 384 l 168.75 384 l 174.969 384 180 378.969 180 372.75
 c h
180 372.75 m f
0.952941 0.960784 0.976471 rg
261.52 222.047 m 257.125 217.652 257.125 210.523 261.52 206.141 c 266.727
 200.934 270.09 196 270.047 191.484 c 270.004 187.023 266.637 182.168 261.52
 177.047 c 242.469 157.977 242.469 135.211 261.52 116.141 c 265.914 111.746
 273.781 111.746 278.176 116.141 c 282.57 120.523 282.57 127.652 278.176
 132.047 c 267.848 142.375 267.848 150.812 278.176 161.141 c 287.602 170.566
 292.457 180.707 292.547 191.262 c 292.656 202.051 287.82 212.41 278.176
 222.047 c 273.781 226.441 265.914 226.441 261.52 222.047 c h
261.52 222.047 m f
0.882353 0.901961 0.941176 rg
329.77 199.547 m 325.375 195.152 325.375 188.023 329.77 183.641 c 334.977
 178.434 337.59 173.5 337.547 168.984 c 337.504 164.523 334.887 159.668 
329.77 154.547 c 310.719 135.477 310.719 112.711 329.77 93.641 c 334.164
 89.246 341.281 89.246 345.676 93.641 c 350.07 98.023 350.07 105.152 345.676
 109.547 c 335.348 119.875 335.348 128.312 345.676 138.641 c 355.102 148.066
 359.957 158.207 360.047 168.762 c 360.156 179.551 355.32 189.91 345.676
 199.547 c 341.281 203.941 334.164 203.941 329.77 199.547 c h
329.77 199.547 m f
1 0.454902 0.34902 rg
144.984 68.25 m 35.016 68.25 l 37.438 72.094 40.113 75.852 43.199 79.5 
c 41.758 83.215 40.516 87.008 39.148 90.75 c 140.852 90.75 l 139.484 87.008
 138.242 83.215 136.801 79.5 c 139.887 75.852 142.562 72.094 144.984 68.25
 c h
144.984 68.25 m f
0.94902 0.294118 0.235294 rg
136.801 79.5 m 139.887 75.852 142.562 72.094 144.984 68.25 c 90 68.25 l
 90 90.75 l 140.852 90.75 l 139.484 87.008 138.242 83.215 136.801 79.5 c
 h
136.801 79.5 m f
1 0.454902 0.34902 rg
135 270.75 m 135 295.602 114.852 315.75 90 315.75 c 65.148 315.75 45 295.602
 45 270.75 c 45 245.898 65.148 225.75 90 225.75 c 114.852 225.75 135 245.898
 135 270.75 c h
135 270.75 m f
0.94902 0.294118 0.235294 rg
135 270.75 m 135 245.934 114.809 225.75 90 225.75 c 90 315.75 l 114.809
 315.75 135 295.566 135 270.75 c h
135 270.75 m f
96.219 134.562 m 90.66 131.785 88.418 125.027 91.188 119.469 c 113.688 
74.469 l 116.5 68.898 123.223 66.703 128.781 69.438 c 173.781 91.938 l 179.34
 94.715 181.582 101.473 178.812 107.031 c 176.023 112.602 169.301 114.844
 163.719 112.062 c 128.781 94.594 l 111.312 129.531 l 108.574 134.996 101.906
 137.371 96.219 134.562 c h
96.219 134.562 m f
Q Q
showpage
%%Trailer
end
%%EOF
