%!PS-Adobe-3.0 EPSF-3.0
%%Creator: cairo 1.16.0 (https://cairographics.org)
%%CreationDate: Thu Apr  8 07:10:29 2021
%%Pages: 1
%%DocumentData: Clean7Bit
%%LanguageLevel: 2
%%BoundingBox: 90 0 294 384
%%EndComments
%%BeginProlog
50 dict begin
/q { gsave } bind def
/Q { grestore } bind def
/cm { 6 array astore concat } bind def
/w { setlinewidth } bind def
/J { setlinecap } bind def
/j { setlinejoin } bind def
/M { setmiterlimit } bind def
/d { setdash } bind def
/m { moveto } bind def
/l { lineto } bind def
/c { curveto } bind def
/h { closepath } bind def
/re { exch dup neg 3 1 roll 5 3 roll moveto 0 rlineto
      0 exch rlineto 0 rlineto closepath } bind def
/S { stroke } bind def
/f { fill } bind def
/f* { eofill } bind def
/n { newpath } bind def
/W { clip } bind def
/W* { eoclip } bind def
/BT { } bind def
/ET { } bind def
/BDC { mark 3 1 roll /BDC pdfmark } bind def
/EMC { mark /EMC pdfmark } bind def
/cairo_store_point { /cairo_point_y exch def /cairo_point_x exch def } def
/Tj { show currentpoint cairo_store_point } bind def
/TJ {
  {
    dup
    type /stringtype eq
    { show } { -0.001 mul 0 cairo_font_matrix dtransform rmoveto } ifelse
  } forall
  currentpoint cairo_store_point
} bind def
/cairo_selectfont { cairo_font_matrix aload pop pop pop 0 0 6 array astore
    cairo_font exch selectfont cairo_point_x cairo_point_y moveto } bind def
/Tf { pop /cairo_font exch def /cairo_font_matrix where
      { pop cairo_selectfont } if } bind def
/Td { matrix translate cairo_font_matrix matrix concatmatrix dup
      /cairo_font_matrix exch def dup 4 get exch 5 get cairo_store_point
      /cairo_font where { pop cairo_selectfont } if } bind def
/Tm { 2 copy 8 2 roll 6 array astore /cairo_font_matrix exch def
      cairo_store_point /cairo_font where { pop cairo_selectfont } if } bind def
/g { setgray } bind def
/rg { setrgbcolor } bind def
/d1 { setcachedevice } bind def
/cairo_data_source {
  CairoDataIndex CairoData length lt
    { CairoData CairoDataIndex get /CairoDataIndex CairoDataIndex 1 add def }
    { () } ifelse
} def
/cairo_flush_ascii85_file { cairo_ascii85_file status { cairo_ascii85_file flushfile } if } def
/cairo_image { image cairo_flush_ascii85_file } def
/cairo_imagemask { imagemask cairo_flush_ascii85_file } def
%%EndProlog
%%BeginSetup
%%EndSetup
%%Page: 1 1
%%BeginPageSetup
%%PageBoundingBox: 90 0 294 384
%%EndPageSetup
q 90 0 204 384 rectclip
1 0 0 -1 0 384 cm q
1 0.882353 0.298039 rg
282 135.75 m 102 135.75 l 95.781 135.75 90.75 140.781 90.75 147 c 90.75
 180.75 l 113.25 192 l 90.75 203.25 l 90.75 225.75 l 113.25 237 l 90.75 
248.25 l 90.75 270.75 l 113.25 282 l 90.75 293.25 l 90.75 304.5 l 90.75 
331.668 110.109 355.141 135.75 360.367 c 135.75 372.75 l 135.75 378.969 
140.781 384 147 384 c 237 384 l 243.219 384 248.25 378.969 248.25 372.75
 c 248.25 360.367 l 273.891 355.137 293.25 331.668 293.25 304.5 c 293.25
 147 l 293.25 140.781 288.219 135.75 282 135.75 c h
282 135.75 m f
1 0.74902 0.25098 rg
248.25 372.75 m 248.25 360.367 l 273.891 355.137 293.25 331.668 293.25 
304.5 c 293.25 147 l 293.25 140.781 288.219 135.75 282 135.75 c 192 135.75
 l 192 384 l 237 384 l 243.219 384 248.25 378.969 248.25 372.75 c h
248.25 372.75 m f
0.952941 0.960784 0.976471 rg
149.77 109.547 m 145.375 105.152 145.375 98.023 149.77 93.641 c 154.977
 88.434 157.59 83.5 157.547 78.984 c 157.504 74.523 154.887 69.668 149.77
 64.547 c 130.719 45.477 130.719 22.367 149.77 3.297 c 154.164 -1.098 161.281
 -1.098 165.676 3.297 c 170.07 7.68 170.07 14.809 165.676 19.203 c 155.348
 29.531 155.348 38.312 165.676 48.641 c 175.102 58.066 179.957 68.207 180.047
 78.762 c 180.156 89.551 175.32 99.91 165.676 109.547 c 161.281 113.941 
154.164 113.941 149.77 109.547 c h
149.77 109.547 m f
0.882353 0.901961 0.941176 rg
217.27 109.547 m 212.875 105.152 212.875 98.023 217.27 93.641 c 222.477
 88.434 225.09 83.5 225.047 78.984 c 225.004 74.523 222.387 69.668 217.27
 64.547 c 198.219 45.477 198.219 22.367 217.27 3.297 c 221.664 -1.098 228.781
 -1.098 233.176 3.297 c 237.57 7.68 237.57 14.809 233.176 19.203 c 222.848
 29.531 222.848 38.312 233.176 48.641 c 242.602 58.066 247.457 68.207 247.547
 78.762 c 247.656 89.551 242.82 99.91 233.176 109.547 c 228.781 113.941 
221.664 113.941 217.27 109.547 c h
217.27 109.547 m f
1 0.74902 0.25098 rg
180.75 192 m 180.75 185.781 175.719 180.75 169.5 180.75 c 90.75 180.75 
l 90.75 203.25 l 169.5 203.25 l 175.719 203.25 180.75 198.219 180.75 192
 c h
180.75 192 m f
158.25 237 m 158.25 230.781 153.219 225.75 147 225.75 c 90.75 225.75 l 
90.75 248.25 l 147 248.25 l 153.219 248.25 158.25 243.219 158.25 237 c h
158.25 237 m f
180.75 282 m 180.75 275.781 175.719 270.75 169.5 270.75 c 90.75 270.75 
l 90.75 293.25 l 169.5 293.25 l 175.719 293.25 180.75 288.219 180.75 282
 c h
180.75 282 m f
Q Q
showpage
%%Trailer
end
%%EOF
