%!PS-Adobe-3.0 EPSF-3.0
%%Creator: cairo 1.16.0 (https://cairographics.org)
%%CreationDate: Thu Apr  8 07:10:29 2021
%%Pages: 1
%%DocumentData: Clean7Bit
%%LanguageLevel: 2
%%BoundingBox: 0 23 384 361
%%EndComments
%%BeginProlog
50 dict begin
/q { gsave } bind def
/Q { grestore } bind def
/cm { 6 array astore concat } bind def
/w { setlinewidth } bind def
/J { setlinecap } bind def
/j { setlinejoin } bind def
/M { setmiterlimit } bind def
/d { setdash } bind def
/m { moveto } bind def
/l { lineto } bind def
/c { curveto } bind def
/h { closepath } bind def
/re { exch dup neg 3 1 roll 5 3 roll moveto 0 rlineto
      0 exch rlineto 0 rlineto closepath } bind def
/S { stroke } bind def
/f { fill } bind def
/f* { eofill } bind def
/n { newpath } bind def
/W { clip } bind def
/W* { eoclip } bind def
/BT { } bind def
/ET { } bind def
/BDC { mark 3 1 roll /BDC pdfmark } bind def
/EMC { mark /EMC pdfmark } bind def
/cairo_store_point { /cairo_point_y exch def /cairo_point_x exch def } def
/Tj { show currentpoint cairo_store_point } bind def
/TJ {
  {
    dup
    type /stringtype eq
    { show } { -0.001 mul 0 cairo_font_matrix dtransform rmoveto } ifelse
  } forall
  currentpoint cairo_store_point
} bind def
/cairo_selectfont { cairo_font_matrix aload pop pop pop 0 0 6 array astore
    cairo_font exch selectfont cairo_point_x cairo_point_y moveto } bind def
/Tf { pop /cairo_font exch def /cairo_font_matrix where
      { pop cairo_selectfont } if } bind def
/Td { matrix translate cairo_font_matrix matrix concatmatrix dup
      /cairo_font_matrix exch def dup 4 get exch 5 get cairo_store_point
      /cairo_font where { pop cairo_selectfont } if } bind def
/Tm { 2 copy 8 2 roll 6 array astore /cairo_font_matrix exch def
      cairo_store_point /cairo_font where { pop cairo_selectfont } if } bind def
/g { setgray } bind def
/rg { setrgbcolor } bind def
/d1 { setcachedevice } bind def
/cairo_data_source {
  CairoDataIndex CairoData length lt
    { CairoData CairoDataIndex get /CairoDataIndex CairoDataIndex 1 add def }
    { () } ifelse
} def
/cairo_flush_ascii85_file { cairo_ascii85_file status { cairo_ascii85_file flushfile } if } def
/cairo_image { image cairo_flush_ascii85_file } def
/cairo_imagemask { imagemask cairo_flush_ascii85_file } def
%%EndProlog
%%BeginSetup
%%EndSetup
%%Page: 1 1
%%BeginPageSetup
%%PageBoundingBox: 0 23 384 361
%%EndPageSetup
q 0 23 384 338 rectclip
1 0 0 -1 0 384 cm q
0.901961 0.580392 0.360784 rg
287.777 180.422 m 282.219 177.641 279.977 170.883 282.746 165.324 c 330.121
 72.094 l 332.914 66.535 339.68 64.328 345.219 67.062 c 350.777 69.844 353.02
 76.598 350.25 82.16 c 302.875 175.387 l 300.133 180.855 293.469 183.227
 287.777 180.422 c h
287.777 180.422 m f
1 0.74902 0.25098 rg
358.168 218 m 282 217.68 l 206.031 217.359 l 204.395 223.676 203.25 230.18
 203.25 237 c 203.25 280.418 238.582 315.75 282 315.75 c 325.418 315.75 
360.75 280.418 360.75 237 c 360.75 230.418 359.695 224.117 358.168 218 c
 h
358.168 218 m f
1 0.6 0.2 rg
360.75 237 m 360.75 230.418 359.695 224.117 358.168 218 c 282 217.68 l 
282 315.75 l 325.418 315.75 360.75 280.418 360.75 237 c h
360.75 237 m f
0.701961 0.388235 0.282353 rg
282 158.25 m 247.324 158.25 215.141 182.242 206.031 217.363 c 212.918 238.027
 230.75 248.25 248.25 248.25 c 258.27 248.25 268.113 244.855 276 238.68 
c 277.715 237.34 279.859 236.668 282 236.668 c 284.141 236.668 286.285 237.34
 288 238.68 c 295.887 244.855 305.73 248.25 315.75 248.25 c 334.051 248.25
 351.438 237.223 358.168 218 c 349.145 181.922 317.203 158.25 282 158.25
 c h
282 158.25 m f
0.6 0.25098 0.180392 rg
315.75 248.25 m 334.051 248.25 351.438 237.223 358.168 218 c 349.145 181.922
 317.203 158.25 282 158.25 c 282 236.672 l 284.141 236.672 286.285 237.34
 288 238.68 c 295.887 244.855 305.73 248.25 315.75 248.25 c h
315.75 248.25 m f
1 0.74902 0.25098 rg
178.168 218 m 102 217.68 l 26.031 217.359 l 24.395 223.676 23.25 230.18
 23.25 237 c 23.25 280.418 58.582 315.75 102 315.75 c 145.418 315.75 180.75
 280.418 180.75 237 c 180.75 230.418 179.699 224.117 178.168 218 c h
178.168 218 m f
1 0.6 0.2 rg
180.75 237 m 180.75 230.418 179.699 224.117 178.168 218 c 102 217.68 l 
102 315.75 l 145.418 315.75 180.75 280.418 180.75 237 c h
180.75 237 m f
0.701961 0.388235 0.282353 rg
102 158.25 m 67.324 158.25 35.141 182.242 26.031 217.363 c 32.922 238.027
 50.754 248.25 68.25 248.25 c 78.27 248.25 88.113 244.855 96 238.68 c 97.715
 237.34 99.859 236.668 102 236.668 c 104.141 236.668 106.285 237.34 108 
238.68 c 115.887 244.855 125.73 248.25 135.75 248.25 c 154.051 248.25 171.438
 237.223 178.168 218 c 169.145 181.922 137.203 158.25 102 158.25 c h
102 158.25 m f
0.6 0.25098 0.180392 rg
135.75 248.25 m 154.051 248.25 171.438 237.223 178.168 218 c 169.145 181.922
 137.203 158.25 102 158.25 c 102 236.672 l 104.141 236.672 106.285 237.34
 108 238.68 c 115.887 244.855 125.73 248.25 135.75 248.25 c h
135.75 248.25 m f
0.8 0.427451 0.239216 rg
350.25 90.75 m 331.641 90.75 316.5 75.609 316.5 57 c 316.5 38.391 331.641
 23.25 350.25 23.25 c 368.859 23.25 384 38.391 384 57 c 384 75.609 368.859
 90.75 350.25 90.75 c h
350.25 90.75 m f
1 0.454902 0.34902 rg
382.199 294.215 m 379.652 290.273 374.84 288.383 370.336 289.352 c 335.883
 296.98 260.309 315.75 192 315.75 c 131.68 315.75 70.004 301.852 13.664 
289.352 c 9.227 288.371 4.371 290.273 1.801 294.215 c -0.75 298.16 -0.574
 303.27 2.219 307.047 c 42.742 356.211 l 44.871 359.07 48.211 360.75 51.773
 360.75 c 332.23 360.75 l 335.789 360.75 339.129 359.07 341.262 356.211 
c 381.785 307.047 l 384.574 303.27 384.75 298.16 382.199 294.215 c h
382.199 294.215 m f
0.94902 0.294118 0.235294 rg
341.262 356.211 m 381.781 307.047 l 384.574 303.27 384.75 298.16 382.199
 294.215 c 379.652 290.273 374.84 288.383 370.336 289.352 c 335.883 296.98
 260.309 315.75 192 315.75 c 192 360.75 l 332.23 360.75 l 335.789 360.75
 339.129 359.07 341.262 356.211 c h
341.262 356.211 m f
1 0.74902 0.25098 rg
268.168 218 m 192 217.68 l 116.031 217.359 l 114.395 223.676 113.25 230.18
 113.25 237 c 113.25 280.418 148.582 315.75 192 315.75 c 235.418 315.75 
270.75 280.418 270.75 237 c 270.75 230.418 269.699 224.117 268.168 218 c
 h
268.168 218 m f
1 0.6 0.2 rg
270.75 237 m 270.75 230.418 269.699 224.117 268.168 218 c 192 217.68 l 
192 315.75 l 235.418 315.75 270.75 280.418 270.75 237 c h
270.75 237 m f
0.701961 0.388235 0.282353 rg
192 158.25 m 157.324 158.25 125.141 182.242 116.031 217.363 c 122.922 238.027
 140.75 248.25 158.25 248.25 c 168.27 248.25 178.113 244.855 186 238.68 
c 187.715 237.34 189.859 236.668 192 236.668 c 194.141 236.668 196.285 237.34
 198 238.68 c 205.887 244.855 215.73 248.25 225.75 248.25 c 244.051 248.25
 261.438 237.223 268.168 218 c 259.145 181.922 227.203 158.25 192 158.25
 c h
192 158.25 m f
0.6 0.25098 0.180392 rg
225.75 248.25 m 244.051 248.25 261.438 237.223 268.168 218 c 259.145 181.922
 227.203 158.25 192 158.25 c 192 236.672 l 194.141 236.672 196.285 237.34
 198 238.68 c 205.887 244.855 215.73 248.25 225.75 248.25 c h
225.75 248.25 m f
Q Q
showpage
%%Trailer
end
%%EOF
