%!PS-Adobe-3.0 EPSF-3.0
%%Creator: cairo 1.16.0 (https://cairographics.org)
%%CreationDate: Thu Apr  8 07:10:32 2021
%%Pages: 1
%%DocumentData: Clean7Bit
%%LanguageLevel: 2
%%BoundingBox: 0 0 384 384
%%EndComments
%%BeginProlog
50 dict begin
/q { gsave } bind def
/Q { grestore } bind def
/cm { 6 array astore concat } bind def
/w { setlinewidth } bind def
/J { setlinecap } bind def
/j { setlinejoin } bind def
/M { setmiterlimit } bind def
/d { setdash } bind def
/m { moveto } bind def
/l { lineto } bind def
/c { curveto } bind def
/h { closepath } bind def
/re { exch dup neg 3 1 roll 5 3 roll moveto 0 rlineto
      0 exch rlineto 0 rlineto closepath } bind def
/S { stroke } bind def
/f { fill } bind def
/f* { eofill } bind def
/n { newpath } bind def
/W { clip } bind def
/W* { eoclip } bind def
/BT { } bind def
/ET { } bind def
/BDC { mark 3 1 roll /BDC pdfmark } bind def
/EMC { mark /EMC pdfmark } bind def
/cairo_store_point { /cairo_point_y exch def /cairo_point_x exch def } def
/Tj { show currentpoint cairo_store_point } bind def
/TJ {
  {
    dup
    type /stringtype eq
    { show } { -0.001 mul 0 cairo_font_matrix dtransform rmoveto } ifelse
  } forall
  currentpoint cairo_store_point
} bind def
/cairo_selectfont { cairo_font_matrix aload pop pop pop 0 0 6 array astore
    cairo_font exch selectfont cairo_point_x cairo_point_y moveto } bind def
/Tf { pop /cairo_font exch def /cairo_font_matrix where
      { pop cairo_selectfont } if } bind def
/Td { matrix translate cairo_font_matrix matrix concatmatrix dup
      /cairo_font_matrix exch def dup 4 get exch 5 get cairo_store_point
      /cairo_font where { pop cairo_selectfont } if } bind def
/Tm { 2 copy 8 2 roll 6 array astore /cairo_font_matrix exch def
      cairo_store_point /cairo_font where { pop cairo_selectfont } if } bind def
/g { setgray } bind def
/rg { setrgbcolor } bind def
/d1 { setcachedevice } bind def
/cairo_data_source {
  CairoDataIndex CairoData length lt
    { CairoData CairoDataIndex get /CairoDataIndex CairoDataIndex 1 add def }
    { () } ifelse
} def
/cairo_flush_ascii85_file { cairo_ascii85_file status { cairo_ascii85_file flushfile } if } def
/cairo_image { image cairo_flush_ascii85_file } def
/cairo_imagemask { imagemask cairo_flush_ascii85_file } def
%%EndProlog
%%BeginSetup
%%EndSetup
%%Page: 1 1
%%BeginPageSetup
%%PageBoundingBox: 0 0 384 384
%%EndPageSetup
q 0 0 384 384 rectclip
1 0 0 -1 0 384 cm q
0.952941 0.960784 0.976471 rg
146.473 67.5 m 122.805 45 l 56.012 45 l 33.527 67.5 l 44.613 123.676 l 
42.016 131.105 35.066 151.762 27.402 180.75 c 36.188 203.238 l 59.637 202.953
 70.254 198.957 90 191.188 c 102.07 186.445 115.285 181.914 137.352 180.938
 c 146.383 158.25 l 141.383 141.117 137.25 129.008 135.387 123.676 c h
146.473 67.5 m f
0.882353 0.901961 0.941176 rg
146.383 158.25 m 141.383 141.117 137.25 129.008 135.387 123.676 c 146.473
 67.5 l 122.805 45 l 90 45 l 90 191.188 l 102.07 186.445 115.285 181.914
 137.352 180.938 c h
146.383 158.25 m f
0.701961 0.388235 0.282353 rg
146.383 158.25 m 137.352 158.25 l 115.285 159.227 102.07 163.945 90 168.688
 c 71.262 176.059 60.629 180.449 36.188 180.75 c 27.402 180.75 l 11.305 
241.637 0 310 0 372.75 c 0 378.969 5.031 384 11.25 384 c 168.75 384 l 174.969
 384 180 378.969 180 372.75 c 180 302.48 165.879 225.082 146.383 158.25 
c h
146.383 158.25 m f
0.6 0.25098 0.180392 rg
180 372.75 m 180 302.48 165.879 225.082 146.383 158.25 c 137.352 158.25
 l 115.285 159.227 102.07 163.945 90 168.688 c 90 384 l 168.75 384 l 174.969
 384 180 378.969 180 372.75 c h
180 372.75 m f
0.94902 0.294118 0.235294 rg
90 13.457 m 22.719 13.457 l 33.527 67.5 l 146.473 67.5 l 157.281 13.457
 l h
90 13.457 m f
0.8 0.160784 0.266667 rg
157.281 13.457 m 90 13.457 l 90 67.5 l 146.473 67.5 l h
157.281 13.457 m f
1 0.454902 0.34902 rg
168.75 0 m 11.25 0 l 5.035 0 0 5.035 0 11.25 c 0 17.465 5.035 22.5 11.25
 22.5 c 168.75 22.5 l 174.965 22.5 180 17.465 180 11.25 c 180 5.035 174.965
 0 168.75 0 c h
168.75 0 m f
0.94902 0.294118 0.235294 rg
180 11.25 m 180 5.035 174.965 0 168.75 0 c 90 0 l 90 22.5 l 168.75 22.5
 l 174.965 22.5 180 17.465 180 11.25 c h
180 11.25 m f
0.952941 0.960784 0.976471 rg
372.621 294 m 213.879 294 l 205.504 294 199.961 302.789 203.68 310.297 
c 215.793 334.758 245.148 354.879 247.5 356.715 c 247.5 372.75 l 247.5 378.965
 252.535 384 258.75 384 c 327.75 384 l 333.965 384 339 378.965 339 372.75
 c 339 356.715 l 341.254 354.953 370.551 335.07 382.82 310.297 c 386.539
 302.789 380.996 294 372.621 294 c h
372.621 294 m f
0.882353 0.901961 0.941176 rg
339 372.75 m 339 356.715 l 341.254 354.953 370.551 335.07 382.82 310.297
 c 386.539 302.789 380.996 294 372.621 294 c 293.25 294 l 293.25 384 l 327.75
 384 l 333.965 384 339 378.965 339 372.75 c h
339 372.75 m f
Q Q
showpage
%%Trailer
end
%%EOF
