%!PS-Adobe-3.0 EPSF-3.0
%%Creator: cairo 1.16.0 (https://cairographics.org)
%%CreationDate: Thu Apr  8 07:10:32 2021
%%Pages: 1
%%DocumentData: Clean7Bit
%%LanguageLevel: 2
%%BoundingBox: 0 23 384 361
%%EndComments
%%BeginProlog
50 dict begin
/q { gsave } bind def
/Q { grestore } bind def
/cm { 6 array astore concat } bind def
/w { setlinewidth } bind def
/J { setlinecap } bind def
/j { setlinejoin } bind def
/M { setmiterlimit } bind def
/d { setdash } bind def
/m { moveto } bind def
/l { lineto } bind def
/c { curveto } bind def
/h { closepath } bind def
/re { exch dup neg 3 1 roll 5 3 roll moveto 0 rlineto
      0 exch rlineto 0 rlineto closepath } bind def
/S { stroke } bind def
/f { fill } bind def
/f* { eofill } bind def
/n { newpath } bind def
/W { clip } bind def
/W* { eoclip } bind def
/BT { } bind def
/ET { } bind def
/BDC { mark 3 1 roll /BDC pdfmark } bind def
/EMC { mark /EMC pdfmark } bind def
/cairo_store_point { /cairo_point_y exch def /cairo_point_x exch def } def
/Tj { show currentpoint cairo_store_point } bind def
/TJ {
  {
    dup
    type /stringtype eq
    { show } { -0.001 mul 0 cairo_font_matrix dtransform rmoveto } ifelse
  } forall
  currentpoint cairo_store_point
} bind def
/cairo_selectfont { cairo_font_matrix aload pop pop pop 0 0 6 array astore
    cairo_font exch selectfont cairo_point_x cairo_point_y moveto } bind def
/Tf { pop /cairo_font exch def /cairo_font_matrix where
      { pop cairo_selectfont } if } bind def
/Td { matrix translate cairo_font_matrix matrix concatmatrix dup
      /cairo_font_matrix exch def dup 4 get exch 5 get cairo_store_point
      /cairo_font where { pop cairo_selectfont } if } bind def
/Tm { 2 copy 8 2 roll 6 array astore /cairo_font_matrix exch def
      cairo_store_point /cairo_font where { pop cairo_selectfont } if } bind def
/g { setgray } bind def
/rg { setrgbcolor } bind def
/d1 { setcachedevice } bind def
/cairo_data_source {
  CairoDataIndex CairoData length lt
    { CairoData CairoDataIndex get /CairoDataIndex CairoDataIndex 1 add def }
    { () } ifelse
} def
/cairo_flush_ascii85_file { cairo_ascii85_file status { cairo_ascii85_file flushfile } if } def
/cairo_image { image cairo_flush_ascii85_file } def
/cairo_imagemask { imagemask cairo_flush_ascii85_file } def
%%EndProlog
%%BeginSetup
%%EndSetup
%%Page: 1 1
%%BeginPageSetup
%%PageBoundingBox: 0 23 384 361
%%EndPageSetup
q 0 23 384 338 rectclip
1 0 0 -1 0 384 cm q
0.952941 0.960784 0.976471 rg
372.07 240.309 m 258.82 60.309 l 244.316 37.105 219.332 23.25 192 23.25
 c 164.668 23.25 139.684 37.105 125.18 60.309 c 11.93 240.309 l 4.133 252.789
 0 267.203 0 282 c 0 325.418 35.332 360.75 78.75 360.75 c 113.25 360.75 
l 135.75 338.25 l 248.25 338.25 l 270.75 360.75 l 305.25 360.75 l 348.668
 360.75 384 325.418 384 282 c 384 267.203 379.867 252.777 372.07 240.309
 c h
372.07 240.309 m f
0.882353 0.901961 0.941176 rg
270.75 360.75 m 305.25 360.75 l 348.668 360.75 384 325.418 384 282 c 384
 267.203 379.867 252.777 372.07 240.309 c 258.82 60.309 l 244.316 37.105
 219.332 23.25 192 23.25 c 192 338.25 l 248.25 338.25 l h
270.75 360.75 m f
0.811765 0.843137 0.901961 rg
248.25 147 m 248.25 153.215 243.215 158.25 237 158.25 c 230.785 158.25 
225.75 153.215 225.75 147 c 225.75 140.785 230.785 135.75 237 135.75 c 243.215
 135.75 248.25 140.785 248.25 147 c h
248.25 147 m f
0.882353 0.901961 0.941176 rg
158.25 147 m 158.25 153.215 153.215 158.25 147 158.25 c 140.785 158.25 
135.75 153.215 135.75 147 c 135.75 140.785 140.785 135.75 147 135.75 c 153.215
 135.75 158.25 140.785 158.25 147 c h
158.25 147 m f
203.25 102 m 203.25 108.215 198.215 113.25 192 113.25 c 185.785 113.25 
180.75 108.215 180.75 102 c 180.75 95.785 185.785 90.75 192 90.75 c 198.215
 90.75 203.25 95.785 203.25 102 c h
203.25 102 m f
0.811765 0.843137 0.901961 rg
203.25 102 m 203.25 95.785 198.215 90.75 192 90.75 c 192 113.25 l 198.215
 113.25 203.25 108.215 203.25 102 c h
203.25 102 m f
0.301961 0.368627 0.501961 rg
259.5 203.25 m 124.5 203.25 l 118.281 203.25 113.25 208.281 113.25 214.5
 c 113.25 360.75 l 270.75 360.75 l 270.75 214.5 l 270.75 208.281 265.719
 203.25 259.5 203.25 c h
259.5 203.25 m f
0.239216 0.270588 0.4 rg
270.75 214.5 m 270.75 208.281 265.719 203.25 259.5 203.25 c 192 203.25 
l 192 360.75 l 270.75 360.75 l h
270.75 214.5 m f
Q Q
showpage
%%Trailer
end
%%EOF
