%!PS-Adobe-3.0 EPSF-3.0
%%Creator: cairo 1.16.0 (https://cairographics.org)
%%CreationDate: Thu Apr  8 07:10:32 2021
%%Pages: 1
%%DocumentData: Clean7Bit
%%LanguageLevel: 2
%%BoundingBox: 0 0 384 384
%%EndComments
%%BeginProlog
50 dict begin
/q { gsave } bind def
/Q { grestore } bind def
/cm { 6 array astore concat } bind def
/w { setlinewidth } bind def
/J { setlinecap } bind def
/j { setlinejoin } bind def
/M { setmiterlimit } bind def
/d { setdash } bind def
/m { moveto } bind def
/l { lineto } bind def
/c { curveto } bind def
/h { closepath } bind def
/re { exch dup neg 3 1 roll 5 3 roll moveto 0 rlineto
      0 exch rlineto 0 rlineto closepath } bind def
/S { stroke } bind def
/f { fill } bind def
/f* { eofill } bind def
/n { newpath } bind def
/W { clip } bind def
/W* { eoclip } bind def
/BT { } bind def
/ET { } bind def
/BDC { mark 3 1 roll /BDC pdfmark } bind def
/EMC { mark /EMC pdfmark } bind def
/cairo_store_point { /cairo_point_y exch def /cairo_point_x exch def } def
/Tj { show currentpoint cairo_store_point } bind def
/TJ {
  {
    dup
    type /stringtype eq
    { show } { -0.001 mul 0 cairo_font_matrix dtransform rmoveto } ifelse
  } forall
  currentpoint cairo_store_point
} bind def
/cairo_selectfont { cairo_font_matrix aload pop pop pop 0 0 6 array astore
    cairo_font exch selectfont cairo_point_x cairo_point_y moveto } bind def
/Tf { pop /cairo_font exch def /cairo_font_matrix where
      { pop cairo_selectfont } if } bind def
/Td { matrix translate cairo_font_matrix matrix concatmatrix dup
      /cairo_font_matrix exch def dup 4 get exch 5 get cairo_store_point
      /cairo_font where { pop cairo_selectfont } if } bind def
/Tm { 2 copy 8 2 roll 6 array astore /cairo_font_matrix exch def
      cairo_store_point /cairo_font where { pop cairo_selectfont } if } bind def
/g { setgray } bind def
/rg { setrgbcolor } bind def
/d1 { setcachedevice } bind def
/cairo_data_source {
  CairoDataIndex CairoData length lt
    { CairoData CairoDataIndex get /CairoDataIndex CairoDataIndex 1 add def }
    { () } ifelse
} def
/cairo_flush_ascii85_file { cairo_ascii85_file status { cairo_ascii85_file flushfile } if } def
/cairo_image { image cairo_flush_ascii85_file } def
/cairo_imagemask { imagemask cairo_flush_ascii85_file } def
%%EndProlog
%%BeginSetup
%%EndSetup
%%Page: 1 1
%%BeginPageSetup
%%PageBoundingBox: 0 0 384 384
%%EndPageSetup
q 0 0 384 384 rectclip
1 0 0 -1 0 384 cm q
0.160784 0.65098 0.0627451 rg
337.68 23.496 m 334.426 20.242 329.547 19.297 325.375 21.078 c 323.922 
21.684 289.691 36.074 270.773 46.652 c 265.125 108.406 l 270.375 111.441
 276.199 112.914 281.957 112.914 c 290.699 112.914 299.359 109.527 305.863
 103.035 c 315.465 93.434 334.492 49.148 340.098 35.801 c 341.875 31.59 
340.91 26.727 337.68 23.496 c h
337.68 23.496 m f
0.4 0.74902 0.223529 rg
259.5 112.922 m 240.891 112.922 225.75 97.785 225.75 79.172 c 225.75 65.594
 243.613 20.062 249.086 6.672 c 252.555 -1.789 266.445 -1.789 269.914 6.672
 c 275.387 20.062 293.25 65.594 293.25 79.172 c 293.25 97.785 278.109 112.922
 259.5 112.922 c h
259.5 112.922 m f
0.952941 0.960784 0.976471 rg
338.25 101.672 m 338.25 304.922 l 45 304.922 l 45 101.672 l 45 95.371 49.949
 90.422 56.25 90.422 c 327 90.422 l 333.301 90.422 338.25 95.371 338.25 
101.672 c h
338.25 101.672 m f
0.882353 0.901961 0.941176 rg
338.25 101.672 m 338.25 304.922 l 192 304.922 l 192 90.422 l 327 90.422
 l 333.301 90.422 338.25 95.371 338.25 101.672 c h
338.25 101.672 m f
0.811765 0.843137 0.901961 rg
248.25 169.172 m 248.25 175.387 243.215 180.422 237 180.422 c 230.785 180.422
 225.75 175.387 225.75 169.172 c 225.75 162.961 230.785 157.922 237 157.922
 c 243.215 157.922 248.25 162.961 248.25 169.172 c h
248.25 169.172 m f
293.25 214.172 m 293.25 220.387 288.215 225.422 282 225.422 c 275.785 225.422
 270.75 220.387 270.75 214.172 c 270.75 207.961 275.785 202.922 282 202.922
 c 288.215 202.922 293.25 207.961 293.25 214.172 c h
293.25 214.172 m f
0.882353 0.901961 0.941176 rg
203.25 214.172 m 203.25 220.387 198.215 225.422 192 225.422 c 185.785 225.422
 180.75 220.387 180.75 214.172 c 180.75 207.961 185.785 202.922 192 202.922
 c 198.215 202.922 203.25 207.961 203.25 214.172 c h
203.25 214.172 m f
0.701961 0.388235 0.282353 rg
372.75 293.672 m 11.25 293.672 l 4.949 293.672 0 298.621 0 304.922 c 0 
327.422 l 0 333.723 4.949 338.672 11.25 338.672 c 56.25 338.672 l 56.25 
372.422 l 56.25 378.723 61.199 383.672 67.5 383.672 c 90 383.672 l 96.301
 383.672 101.25 378.723 101.25 372.422 c 101.25 338.672 l 282 338.672 l 
282 372.422 l 282 378.723 286.949 383.672 293.25 383.672 c 315.75 383.672
 l 322.051 383.672 327 378.723 327 372.422 c 327 338.672 l 372.75 338.672
 l 379.051 338.672 384 333.723 384 327.422 c 384 304.922 l 384 298.621 379.051
 293.672 372.75 293.672 c h
372.75 293.672 m f
0.6 0.25098 0.180392 rg
384 304.922 m 384 327.422 l 384 333.723 379.051 338.672 372.75 338.672 
c 327 338.672 l 327 372.422 l 327 378.723 322.051 383.672 315.75 383.672
 c 293.25 383.672 l 286.949 383.672 282 378.723 282 372.422 c 282 338.672
 l 192 338.672 l 192 293.672 l 372.75 293.672 l 379.051 293.672 384 298.621
 384 304.922 c h
384 304.922 m f
0.811765 0.843137 0.901961 rg
203.25 214.172 m 203.25 220.473 198.301 225.422 192 225.422 c 192 202.922
 l 198.301 202.922 203.25 207.871 203.25 214.172 c h
203.25 214.172 m f
Q Q
showpage
%%Trailer
end
%%EOF
