%!PS-Adobe-3.0 EPSF-3.0
%%Creator: cairo 1.16.0 (https://cairographics.org)
%%CreationDate: Thu Apr  8 07:10:33 2021
%%Pages: 1
%%DocumentData: Clean7Bit
%%LanguageLevel: 2
%%BoundingBox: 0 0 384 384
%%EndComments
%%BeginProlog
50 dict begin
/q { gsave } bind def
/Q { grestore } bind def
/cm { 6 array astore concat } bind def
/w { setlinewidth } bind def
/J { setlinecap } bind def
/j { setlinejoin } bind def
/M { setmiterlimit } bind def
/d { setdash } bind def
/m { moveto } bind def
/l { lineto } bind def
/c { curveto } bind def
/h { closepath } bind def
/re { exch dup neg 3 1 roll 5 3 roll moveto 0 rlineto
      0 exch rlineto 0 rlineto closepath } bind def
/S { stroke } bind def
/f { fill } bind def
/f* { eofill } bind def
/n { newpath } bind def
/W { clip } bind def
/W* { eoclip } bind def
/BT { } bind def
/ET { } bind def
/BDC { mark 3 1 roll /BDC pdfmark } bind def
/EMC { mark /EMC pdfmark } bind def
/cairo_store_point { /cairo_point_y exch def /cairo_point_x exch def } def
/Tj { show currentpoint cairo_store_point } bind def
/TJ {
  {
    dup
    type /stringtype eq
    { show } { -0.001 mul 0 cairo_font_matrix dtransform rmoveto } ifelse
  } forall
  currentpoint cairo_store_point
} bind def
/cairo_selectfont { cairo_font_matrix aload pop pop pop 0 0 6 array astore
    cairo_font exch selectfont cairo_point_x cairo_point_y moveto } bind def
/Tf { pop /cairo_font exch def /cairo_font_matrix where
      { pop cairo_selectfont } if } bind def
/Td { matrix translate cairo_font_matrix matrix concatmatrix dup
      /cairo_font_matrix exch def dup 4 get exch 5 get cairo_store_point
      /cairo_font where { pop cairo_selectfont } if } bind def
/Tm { 2 copy 8 2 roll 6 array astore /cairo_font_matrix exch def
      cairo_store_point /cairo_font where { pop cairo_selectfont } if } bind def
/g { setgray } bind def
/rg { setrgbcolor } bind def
/d1 { setcachedevice } bind def
/cairo_data_source {
  CairoDataIndex CairoData length lt
    { CairoData CairoDataIndex get /CairoDataIndex CairoDataIndex 1 add def }
    { () } ifelse
} def
/cairo_flush_ascii85_file { cairo_ascii85_file status { cairo_ascii85_file flushfile } if } def
/cairo_image { image cairo_flush_ascii85_file } def
/cairo_imagemask { imagemask cairo_flush_ascii85_file } def
%%EndProlog
%%BeginSetup
%%EndSetup
%%Page: 1 1
%%BeginPageSetup
%%PageBoundingBox: 0 0 384 384
%%EndPageSetup
q 0 0 384 384 rectclip
1 0 0 -1 0 384 cm q
0.239216 0.270588 0.4 rg
202.02 158.844 m 197.297 154.801 196.746 147.703 200.789 142.988 c 319.199
 4.09 l 323.285 -0.637 330.383 -1.152 335.062 2.867 c 339.789 6.91 340.336
 14.008 336.293 18.723 c 217.883 157.625 l 213.75 162.43 206.625 162.824
 202.02 158.844 c h
202.02 158.844 m f
226.035 182.891 m 221.992 178.18 222.543 171.082 227.266 167.039 c 365.43
 47.867 l 370.133 43.824 377.23 44.352 381.293 49.086 c 385.336 53.801 384.789
 60.898 380.062 64.941 c 241.902 184.113 l 237.289 188.098 230.168 187.695
 226.035 182.891 c h
226.035 182.891 m f
0.952941 0.960784 0.976471 rg
248.996 192.395 m 248.996 192.316 248.996 192.23 248.996 192.152 c 248.996
 161.141 223.773 135.902 192.746 135.902 c 192.66 135.902 192.594 135.902
 192.508 135.902 c 181.938 121.863 164.641 113.406 147 113.406 c 129.355
 113.406 112.809 121.863 102.238 135.902 c 102.152 135.902 102.086 135.902
 102 135.902 c 70.973 135.902 45 161.141 45 192.152 c 45 192.395 l 30.957
 202.953 22.5 219.508 22.5 237.152 c 22.5 270.902 l 271.496 270.902 l 271.496
 237.152 l 271.496 219.508 263.039 202.953 248.996 192.395 c h
248.996 192.395 m f
0.882353 0.901961 0.941176 rg
271.496 237.152 m 271.496 219.512 263.039 202.953 248.996 192.395 c 248.996
 192.316 248.996 192.23 248.996 192.152 c 248.996 161.141 223.773 135.902
 192.746 135.902 c 192.66 135.902 192.594 135.902 192.508 135.902 c 181.938
 121.863 164.641 113.406 147 113.406 c 147 270.902 l 271.496 270.902 l h
271.496 237.152 m f
1 0.454902 0.34902 rg
282.727 248.402 m 11.27 248.402 l 4.211 248.402 -0.891 254.789 0.129 261.773
 c 5.094 295.773 30.328 327.488 65.898 345.438 c 78.469 351.793 87.125 362.82
 89.84 375.363 c 90.926 380.379 95.5 383.832 100.629 383.832 c 194.117 383.832
 l 199.246 383.832 203.82 380.379 204.906 375.363 c 207.621 362.82 216.281
 351.793 228.848 345.438 c 264.418 327.488 288.902 295.773 293.867 261.773
 c 294.887 254.789 289.785 248.402 282.727 248.402 c h
282.727 248.402 m f
0.94902 0.294118 0.235294 rg
204.906 375.363 m 207.621 362.82 216.281 351.793 228.848 345.438 c 264.418
 327.488 288.902 295.773 293.867 261.773 c 294.887 254.789 289.785 248.402
 282.727 248.402 c 147 248.402 l 147 383.832 l 194.117 383.832 l 199.246
 383.832 203.82 380.379 204.906 375.363 c h
204.906 375.363 m f
Q Q
showpage
%%Trailer
end
%%EOF
