%!PS-Adobe-3.0 EPSF-3.0
%%Creator: cairo 1.16.0 (https://cairographics.org)
%%CreationDate: Thu Apr  8 07:10:33 2021
%%Pages: 1
%%DocumentData: Clean7Bit
%%LanguageLevel: 2
%%BoundingBox: 0 0 384 384
%%EndComments
%%BeginProlog
50 dict begin
/q { gsave } bind def
/Q { grestore } bind def
/cm { 6 array astore concat } bind def
/w { setlinewidth } bind def
/J { setlinecap } bind def
/j { setlinejoin } bind def
/M { setmiterlimit } bind def
/d { setdash } bind def
/m { moveto } bind def
/l { lineto } bind def
/c { curveto } bind def
/h { closepath } bind def
/re { exch dup neg 3 1 roll 5 3 roll moveto 0 rlineto
      0 exch rlineto 0 rlineto closepath } bind def
/S { stroke } bind def
/f { fill } bind def
/f* { eofill } bind def
/n { newpath } bind def
/W { clip } bind def
/W* { eoclip } bind def
/BT { } bind def
/ET { } bind def
/BDC { mark 3 1 roll /BDC pdfmark } bind def
/EMC { mark /EMC pdfmark } bind def
/cairo_store_point { /cairo_point_y exch def /cairo_point_x exch def } def
/Tj { show currentpoint cairo_store_point } bind def
/TJ {
  {
    dup
    type /stringtype eq
    { show } { -0.001 mul 0 cairo_font_matrix dtransform rmoveto } ifelse
  } forall
  currentpoint cairo_store_point
} bind def
/cairo_selectfont { cairo_font_matrix aload pop pop pop 0 0 6 array astore
    cairo_font exch selectfont cairo_point_x cairo_point_y moveto } bind def
/Tf { pop /cairo_font exch def /cairo_font_matrix where
      { pop cairo_selectfont } if } bind def
/Td { matrix translate cairo_font_matrix matrix concatmatrix dup
      /cairo_font_matrix exch def dup 4 get exch 5 get cairo_store_point
      /cairo_font where { pop cairo_selectfont } if } bind def
/Tm { 2 copy 8 2 roll 6 array astore /cairo_font_matrix exch def
      cairo_store_point /cairo_font where { pop cairo_selectfont } if } bind def
/g { setgray } bind def
/rg { setrgbcolor } bind def
/d1 { setcachedevice } bind def
/cairo_data_source {
  CairoDataIndex CairoData length lt
    { CairoData CairoDataIndex get /CairoDataIndex CairoDataIndex 1 add def }
    { () } ifelse
} def
/cairo_flush_ascii85_file { cairo_ascii85_file status { cairo_ascii85_file flushfile } if } def
/cairo_image { image cairo_flush_ascii85_file } def
/cairo_imagemask { imagemask cairo_flush_ascii85_file } def
%%EndProlog
%%BeginSetup
%%EndSetup
%%Page: 1 1
%%BeginPageSetup
%%PageBoundingBox: 0 0 384 384
%%EndPageSetup
q 0 0 384 384 rectclip
1 0 0 -1 0 384 cm q
0.952941 0.960784 0.976471 rg
384 192 m 384 298.039 298.039 384 192 384 c 85.961 384 0 298.039 0 192 
c 0 85.961 85.961 0 192 0 c 298.039 0 384 85.961 384 192 c h
384 192 m f
0.882353 0.901961 0.941176 rg
384 192 m 384 297.523 297.523 384 192 384 c 192 0 l 297.523 0 384 86.477
 384 192 c h
384 192 m f
0.596078 0.85098 0.341176 rg
28.566 108.02 m -5.668 73.789 0.441 12.996 0.746 10.449 c 1.363 5.316 5.406
 1.266 10.547 0.637 c 13.141 0.34 73.898 -5.766 108.109 28.48 c 142.34 62.715
 135.508 122.742 135.199 125.281 c 134.586 130.422 130.543 134.477 125.402
 135.102 c 93.637 138.73 52.262 131.715 28.566 108.02 c h
28.566 108.02 m f
0.4 0.74902 0.223529 rg
95.41 111.328 m 49.047 64.953 l 44.652 60.559 44.652 53.441 49.047 49.047
 c 53.441 44.652 60.559 44.652 64.953 49.047 c 111.316 95.418 l 115.711 
99.812 115.711 106.934 111.316 111.328 c 106.922 115.723 99.801 115.723 
95.41 111.328 c h
95.41 111.328 m f
0.901961 0.580392 0.360784 rg
338.25 192 m 338.25 178.805 333.723 166.336 325.352 156.273 c 327.57 143.375
 325.266 130.312 318.648 118.875 c 312.035 107.426 301.883 98.902 289.625
 94.375 c 285.078 82.105 276.551 71.941 265.125 65.34 c 253.676 58.746 240.625
 56.484 227.727 58.648 c 217.688 50.289 204.844 46.105 192 46.105 c 179.156
 46.105 166.312 50.289 156.273 58.648 c 143.418 56.473 130.32 58.746 118.875
 65.34 c 107.449 71.941 98.922 82.105 94.375 94.375 c 82.113 98.902 71.965
 107.426 65.352 118.875 c 58.734 130.312 56.43 143.375 58.648 156.273 c 
50.277 166.336 45.75 178.805 45.75 192 c 45.75 205.195 50.277 217.664 58.648
 227.727 c 56.43 240.625 58.734 253.688 65.352 265.125 c 71.941 276.562 
82.117 285.086 94.375 289.625 c 98.922 301.895 107.449 312.059 118.875 318.66
 c 130.324 325.266 143.418 327.551 156.273 325.352 c 166.312 333.711 178.793
 338.25 192 338.25 c 205.207 338.25 217.688 333.711 227.727 325.352 c 240.605
 327.539 253.68 325.266 265.125 318.66 c 276.551 312.059 285.078 301.895
 289.625 289.625 c 301.887 285.086 312.059 276.562 318.648 265.125 c 325.266
 253.688 327.57 240.625 325.352 227.727 c 333.723 217.664 338.25 205.195
 338.25 192 c h
338.25 192 m f
0.8 0.427451 0.239216 rg
265.125 318.66 m 276.551 312.059 285.078 301.895 289.625 289.625 c 301.887
 285.086 312.059 276.562 318.648 265.125 c 325.266 253.688 327.57 240.625
 325.352 227.727 c 333.723 217.664 338.25 205.195 338.25 192 c 338.25 178.805
 333.723 166.336 325.352 156.273 c 327.57 143.375 325.266 130.312 318.648
 118.875 c 312.035 107.426 301.883 98.902 289.625 94.375 c 285.078 82.105
 276.551 71.941 265.125 65.34 c 253.676 58.746 240.625 56.484 227.727 58.648
 c 217.688 50.289 204.844 46.105 192 46.105 c 192 338.25 l 205.207 338.25
 217.688 333.711 227.727 325.352 c 240.605 327.539 253.676 325.266 265.125
 318.66 c h
265.125 318.66 m f
1 0.882353 0.298039 rg
315.75 192 m 315.75 182.781 312.035 174.148 305.293 167.676 c 302.258 164.777
 301.094 160.438 302.258 156.402 c 304.895 147.441 303.797 138.113 299.184
 130.125 c 294.566 122.137 287.031 116.523 277.957 114.305 c 273.891 113.305
 270.707 110.129 269.719 106.066 c 267.477 96.969 261.852 89.43 253.875 
84.828 c 245.898 80.227 236.539 79.148 227.574 81.73 c 223.574 82.918 219.203
 81.742 216.301 78.711 c 209.863 71.965 200.934 68.59 192 68.59 c 183.07
 68.59 174.137 71.965 167.699 78.711 c 164.801 81.742 160.402 82.918 156.426
 81.73 c 147.461 79.137 138.102 80.227 130.125 84.828 c 122.152 89.434 116.523
 96.969 114.285 106.066 c 113.297 110.129 110.109 113.305 106.043 114.305
 c 96.969 116.523 89.434 122.137 84.82 130.125 c 80.203 138.113 79.105 147.441
 81.742 156.402 c 82.906 160.438 81.742 164.777 78.711 167.676 c 71.965 
174.148 68.25 182.781 68.25 192 c 68.25 201.219 71.965 209.852 78.707 216.324
 c 81.742 219.223 82.906 223.562 81.742 227.598 c 79.105 236.559 80.203 
245.887 84.816 253.875 c 89.43 261.852 96.969 267.477 106.043 269.707 c 
110.109 270.695 113.293 273.871 114.281 277.934 c 116.523 287.031 122.148
 294.57 130.125 299.172 c 138.102 303.785 147.484 304.883 156.426 302.27
 c 160.25 301.129 164.688 302.141 167.699 305.289 c 174.137 312.035 183.066
 315.41 192 315.41 c 200.93 315.41 209.863 312.035 216.301 305.289 c 219.199
 302.258 223.574 301.059 227.574 302.27 c 236.539 304.875 245.898 303.785
 253.875 299.172 c 261.852 294.566 267.477 287.031 269.715 277.934 c 270.703
 273.871 273.891 270.695 277.957 269.707 c 287.031 267.477 294.566 261.852
 299.18 253.875 c 303.797 245.887 304.895 236.559 302.258 227.598 c 301.094
 223.562 302.258 219.223 305.289 216.324 c 312.035 209.852 315.75 201.219
 315.75 192 c h
315.75 192 m f
1 0.74902 0.25098 rg
227.574 302.27 m 236.539 304.875 245.898 303.785 253.875 299.172 c 261.852
 294.566 267.477 287.031 269.719 277.934 c 270.707 273.871 273.891 270.695
 277.957 269.707 c 287.031 267.477 294.566 261.852 299.184 253.875 c 303.797
 245.887 304.895 236.559 302.258 227.598 c 301.094 223.562 302.258 219.223
 305.293 216.324 c 312.035 209.852 315.75 201.219 315.75 192 c 315.75 182.781
 312.035 174.148 305.293 167.676 c 302.258 164.777 301.094 160.438 302.258
 156.402 c 304.895 147.441 303.797 138.113 299.184 130.125 c 294.566 122.137
 287.031 116.523 277.957 114.305 c 273.891 113.305 270.707 110.129 269.719
 106.066 c 267.477 96.969 261.852 89.43 253.875 84.828 c 245.898 80.227 
236.539 79.148 227.574 81.73 c 223.574 82.918 219.203 81.742 216.301 78.711
 c 209.863 71.965 200.934 68.59 192 68.59 c 192 315.41 l 200.934 315.41 
209.863 312.039 216.301 305.293 c 219.203 302.258 223.574 301.062 227.574
 302.27 c h
227.574 302.27 m f
0.952941 0.960784 0.976471 rg
270.75 192 m 270.75 235.492 235.492 270.75 192 270.75 c 148.508 270.75 
113.25 235.492 113.25 192 c 113.25 148.508 148.508 113.25 192 113.25 c 212.887
 113.25 232.918 121.547 247.684 136.316 c 262.453 151.082 270.75 171.113
 270.75 192 c h
270.75 192 m f
0.882353 0.901961 0.941176 rg
270.75 192 m 270.75 235.426 235.426 270.75 192 270.75 c 192 113.25 l 235.426
 113.25 270.75 148.574 270.75 192 c h
270.75 192 m f
1 0.882353 0.298039 rg
192 158.25 m 173.324 158.25 158.25 173.324 158.25 192 c 158.25 210.676 
173.324 225.75 192 225.75 c 210.676 225.75 225.75 210.676 225.75 192 c 225.75
 173.324 210.676 158.25 192 158.25 c h
192 158.25 m f
1 0.74902 0.25098 rg
225.75 192 m 225.75 210.676 210.676 225.75 192 225.75 c 192 158.25 l 210.676
 158.25 225.75 173.324 225.75 192 c h
225.75 192 m f
Q Q
showpage
%%Trailer
end
%%EOF
