%!PS-Adobe-3.0 EPSF-3.0
%%Creator: cairo 1.16.0 (https://cairographics.org)
%%CreationDate: Thu Apr  8 07:10:36 2021
%%Pages: 1
%%DocumentData: Clean7Bit
%%LanguageLevel: 2
%%BoundingBox: 0 0 384 384
%%EndComments
%%BeginProlog
50 dict begin
/q { gsave } bind def
/Q { grestore } bind def
/cm { 6 array astore concat } bind def
/w { setlinewidth } bind def
/J { setlinecap } bind def
/j { setlinejoin } bind def
/M { setmiterlimit } bind def
/d { setdash } bind def
/m { moveto } bind def
/l { lineto } bind def
/c { curveto } bind def
/h { closepath } bind def
/re { exch dup neg 3 1 roll 5 3 roll moveto 0 rlineto
      0 exch rlineto 0 rlineto closepath } bind def
/S { stroke } bind def
/f { fill } bind def
/f* { eofill } bind def
/n { newpath } bind def
/W { clip } bind def
/W* { eoclip } bind def
/BT { } bind def
/ET { } bind def
/BDC { mark 3 1 roll /BDC pdfmark } bind def
/EMC { mark /EMC pdfmark } bind def
/cairo_store_point { /cairo_point_y exch def /cairo_point_x exch def } def
/Tj { show currentpoint cairo_store_point } bind def
/TJ {
  {
    dup
    type /stringtype eq
    { show } { -0.001 mul 0 cairo_font_matrix dtransform rmoveto } ifelse
  } forall
  currentpoint cairo_store_point
} bind def
/cairo_selectfont { cairo_font_matrix aload pop pop pop 0 0 6 array astore
    cairo_font exch selectfont cairo_point_x cairo_point_y moveto } bind def
/Tf { pop /cairo_font exch def /cairo_font_matrix where
      { pop cairo_selectfont } if } bind def
/Td { matrix translate cairo_font_matrix matrix concatmatrix dup
      /cairo_font_matrix exch def dup 4 get exch 5 get cairo_store_point
      /cairo_font where { pop cairo_selectfont } if } bind def
/Tm { 2 copy 8 2 roll 6 array astore /cairo_font_matrix exch def
      cairo_store_point /cairo_font where { pop cairo_selectfont } if } bind def
/g { setgray } bind def
/rg { setrgbcolor } bind def
/d1 { setcachedevice } bind def
/cairo_data_source {
  CairoDataIndex CairoData length lt
    { CairoData CairoDataIndex get /CairoDataIndex CairoDataIndex 1 add def }
    { () } ifelse
} def
/cairo_flush_ascii85_file { cairo_ascii85_file status { cairo_ascii85_file flushfile } if } def
/cairo_image { image cairo_flush_ascii85_file } def
/cairo_imagemask { imagemask cairo_flush_ascii85_file } def
%%EndProlog
%%BeginSetup
%%EndSetup
%%Page: 1 1
%%BeginPageSetup
%%PageBoundingBox: 0 0 384 384
%%EndPageSetup
q 0 0 384 384 rectclip
1 0 0 -1 0 384 cm q
0.94902 0.294118 0.235294 rg
339.172 108.613 m 334.777 104.219 334.777 97.098 339.172 92.707 c 358.199
 73.523 l 362.578 69.168 362.617 62.035 358.199 57.613 c 326.383 25.797 
l 322.012 21.449 314.93 21.355 310.473 25.785 c 291.492 44.926 l 287.098
 49.32 279.98 49.32 275.586 44.926 c 271.191 40.531 271.191 33.402 275.586
 29.016 c 294.566 9.891 l 307.656 -3.246 329.051 -3.352 342.289 9.891 c 
374.105 41.707 l 387.332 54.93 387.266 76.281 374.105 89.441 c 355.082 108.613
 l 350.688 113.008 343.566 113.008 339.172 108.613 c h
339.172 108.613 m f
1 0.454902 0.34902 rg
41.711 374.113 m 9.895 342.297 l -3.328 329.07 -3.266 307.719 9.895 294.559
 c 28.918 275.387 l 33.312 270.992 40.434 270.992 44.828 275.387 c 49.223
 279.781 49.223 286.902 44.828 291.293 c 25.801 310.48 l 21.422 314.836 
21.383 321.969 25.801 326.387 c 57.617 358.203 l 61.988 362.551 69.07 362.648
 73.527 358.215 c 92.508 339.074 l 96.902 334.68 104.023 334.68 108.418 
339.074 c 112.809 343.469 112.809 350.598 108.418 354.984 c 89.434 374.113
 l 76.297 387.297 54.895 387.293 41.711 374.113 c h
41.711 374.113 m f
0.301961 0.368627 0.501961 rg
192 0 m 139.273 0 91.461 22.199 56.832 56.832 c 22.199 91.461 0 139.273
 0 192 c 0 297.457 86.555 384 192 384 c 244.727 384 292.539 361.801 327.168
 327.168 c 361.801 292.539 384 244.727 384 192 c 384 86.543 297.445 0 192
 0 c h
192 0 m f
0.239216 0.270588 0.4 rg
192 0 m 139.273 0 91.461 22.199 56.832 56.832 c 327.168 327.168 l 361.801
 292.539 384 244.727 384 192 c 384 86.543 297.445 0 192 0 c h
192 0 m f
1 0.882353 0.298039 rg
192 22.5 m 145.473 22.5 103.285 42.176 72.73 72.73 c 57 147 l 213.949 333.547
 l 293.445 326.535 l 299.695 321.812 305.477 316.535 311.012 311.012 c 341.602
 280.488 361.5 238.535 361.5 192 c 361.5 98.945 285.055 22.5 192 22.5 c 
h
192 22.5 m f
1 0.74902 0.25098 rg
192 22.5 m 145.473 22.5 103.285 42.176 72.73 72.73 c 311.012 311.012 l 
341.602 280.488 361.5 238.535 361.5 192 c 361.5 98.945 285.055 22.5 192 
22.5 c h
192 22.5 m f
0.882353 0.901961 0.941176 rg
259.5 178.5 m 214.5 178.5 l 208.281 178.5 203.25 173.469 203.25 167.25 
c 203.25 160.281 l 176.594 164.953 157.984 161.238 157.984 133.738 c 157.941
 94.566 195.258 66.184 236.734 66.184 c 280.152 66.184 315.484 96.461 315.484
 133.684 c 315.484 161.148 297.473 165.016 270.75 160.293 c 270.75 167.25
 l 270.75 173.469 265.719 178.5 259.5 178.5 c h
259.5 178.5 m f
0.94902 0.294118 0.235294 rg
314.617 271.551 m 314.617 277.762 309.582 282.801 303.367 282.801 c 297.156
 282.801 292.117 277.762 292.117 271.551 c 292.117 265.336 297.156 260.301
 303.367 260.301 c 309.582 260.301 314.617 265.336 314.617 271.551 c h
314.617 271.551 m f
282.801 207.91 m 282.801 214.121 277.762 219.16 271.551 219.16 c 265.336
 219.16 260.301 214.121 260.301 207.91 c 260.301 201.695 265.336 196.66 
271.551 196.66 c 277.762 196.66 282.801 201.695 282.801 207.91 c h
282.801 207.91 m f
0.4 0.74902 0.223529 rg
319.289 235.066 m 313.07 235.066 308.039 230.035 308.039 223.816 c 308.039
 192 l 308.039 185.781 313.07 180.75 319.289 180.75 c 325.508 180.75 330.539
 185.781 330.539 192 c 330.539 223.816 l 330.539 230.035 325.508 235.066
 319.289 235.066 c h
319.289 235.066 m f
0.596078 0.85098 0.341176 rg
265.762 306.27 m 265.84 302.613 277.07 277.082 255.633 255.645 c 244.371
 244.355 228.598 240.285 213.949 243.547 c 204.984 245.559 l 202.105 239.898
 200.203 231.996 192 223.816 c 178.379 210.195 162.148 210.934 158.207 209.898
 c 157.051 205.512 157.977 189.812 144.277 176.09 c 131.379 163.215 117.113
 163.457 113.055 162.25 c 102 102 l 72.73 72.73 l 42.176 103.285 22.5 145.473
 22.5 192 c 22.5 285.055 98.945 361.5 192 361.5 c 230.098 361.5 265.168 
347.91 293.445 326.535 c 286.734 316.113 276.902 311.984 265.762 306.27 
c h
265.762 306.27 m f
0.4 0.74902 0.223529 rg
100.109 213.148 m 94.223 211.191 87.852 214.367 85.871 220.258 c 83.668
 226.867 l 72.668 215.863 l 68.273 211.469 61.152 211.469 56.758 215.863
 c 52.363 220.258 52.363 227.375 56.758 231.77 c 75.703 250.727 l 69.941
 267.992 l 67.988 273.883 71.172 280.254 77.062 282.219 c 82.988 284.195
 89.332 280.973 91.301 275.113 c 107.23 227.375 l 109.184 221.488 106 215.113
 100.109 213.148 c h
100.109 213.148 m f
168.137 247.691 m 163.742 243.297 156.625 243.297 152.23 247.691 c 104.504
 295.414 l 100.109 299.809 100.109 306.93 104.504 311.324 c 108.898 315.719
 116.02 315.719 120.414 311.324 c 168.137 263.598 l 172.531 259.203 172.531
 252.086 168.137 247.691 c h
168.137 247.691 m f
227.375 308.609 m 214.953 304.473 l 228.848 297.523 l 234.406 294.746 236.648
 287.988 233.879 282.43 c 231.09 276.859 224.367 274.641 218.785 277.398
 c 155.152 309.215 l 149.594 311.992 147.352 318.75 150.121 324.309 c 152.859
 329.773 159.527 332.148 165.215 329.34 c 186.5 318.699 l 220.258 329.945
 l 226.184 331.922 232.527 328.695 234.496 322.836 c 236.449 316.938 233.266
 310.566 227.375 308.609 c h
227.375 308.609 m f
0.301961 0.368627 0.501961 rg
152.23 72.676 m 130.305 50.75 94.602 50.746 72.672 72.672 c 72.672 72.672
 72.668 72.676 72.668 72.676 c 50.762 94.605 50.762 130.289 72.668 152.23
 c 94.594 174.156 130.301 174.137 152.23 152.23 c 174.203 130.277 174.234
 94.66 152.23 72.676 c h
152.23 72.676 m f
0.239216 0.270588 0.4 rg
152.23 72.676 m 130.305 50.75 94.602 50.746 72.672 72.672 c 152.23 152.23
 l 174.203 130.277 174.234 94.66 152.23 72.676 c h
152.23 72.676 m f
128.352 112.453 m 136.301 104.504 l 140.691 100.109 140.691 92.992 136.301
 88.598 c 131.906 84.203 124.785 84.203 120.391 88.598 c 112.449 96.543 
l 104.504 88.598 l 100.109 84.203 92.992 84.203 88.598 88.598 c 84.203 92.992
 84.203 100.109 88.598 104.504 c 96.543 112.453 l 88.598 120.402 l 84.203
 124.797 84.203 131.914 88.598 136.309 c 92.992 140.703 100.109 140.703 
104.504 136.309 c 112.449 128.363 l 120.391 136.309 l 124.785 140.703 131.906
 140.703 136.301 136.309 c 136.301 136.309 136.301 136.305 136.305 136.305
 c 140.691 131.906 140.691 124.797 136.301 120.402 c h
128.352 112.453 m f
0.180392 0.180392 0.301961 rg
136.301 120.402 m 128.352 112.453 l 136.301 104.504 l 140.691 100.109 140.691
 92.992 136.301 88.598 c 131.906 84.203 124.785 84.203 120.391 88.598 c 
112.449 96.543 l 104.504 88.598 l 100.109 84.203 92.992 84.203 88.598 88.598
 c 136.305 136.305 l 140.695 131.906 140.691 124.797 136.301 120.402 c h
136.301 120.402 m f
Q Q
showpage
%%Trailer
end
%%EOF
