%!PS-Adobe-3.0 EPSF-3.0
%%Creator: cairo 1.16.0 (https://cairographics.org)
%%CreationDate: Thu Apr  8 07:10:37 2021
%%Pages: 1
%%DocumentData: Clean7Bit
%%LanguageLevel: 2
%%BoundingBox: 0 0 384 384
%%EndComments
%%BeginProlog
50 dict begin
/q { gsave } bind def
/Q { grestore } bind def
/cm { 6 array astore concat } bind def
/w { setlinewidth } bind def
/J { setlinecap } bind def
/j { setlinejoin } bind def
/M { setmiterlimit } bind def
/d { setdash } bind def
/m { moveto } bind def
/l { lineto } bind def
/c { curveto } bind def
/h { closepath } bind def
/re { exch dup neg 3 1 roll 5 3 roll moveto 0 rlineto
      0 exch rlineto 0 rlineto closepath } bind def
/S { stroke } bind def
/f { fill } bind def
/f* { eofill } bind def
/n { newpath } bind def
/W { clip } bind def
/W* { eoclip } bind def
/BT { } bind def
/ET { } bind def
/BDC { mark 3 1 roll /BDC pdfmark } bind def
/EMC { mark /EMC pdfmark } bind def
/cairo_store_point { /cairo_point_y exch def /cairo_point_x exch def } def
/Tj { show currentpoint cairo_store_point } bind def
/TJ {
  {
    dup
    type /stringtype eq
    { show } { -0.001 mul 0 cairo_font_matrix dtransform rmoveto } ifelse
  } forall
  currentpoint cairo_store_point
} bind def
/cairo_selectfont { cairo_font_matrix aload pop pop pop 0 0 6 array astore
    cairo_font exch selectfont cairo_point_x cairo_point_y moveto } bind def
/Tf { pop /cairo_font exch def /cairo_font_matrix where
      { pop cairo_selectfont } if } bind def
/Td { matrix translate cairo_font_matrix matrix concatmatrix dup
      /cairo_font_matrix exch def dup 4 get exch 5 get cairo_store_point
      /cairo_font where { pop cairo_selectfont } if } bind def
/Tm { 2 copy 8 2 roll 6 array astore /cairo_font_matrix exch def
      cairo_store_point /cairo_font where { pop cairo_selectfont } if } bind def
/g { setgray } bind def
/rg { setrgbcolor } bind def
/d1 { setcachedevice } bind def
/cairo_data_source {
  CairoDataIndex CairoData length lt
    { CairoData CairoDataIndex get /CairoDataIndex CairoDataIndex 1 add def }
    { () } ifelse
} def
/cairo_flush_ascii85_file { cairo_ascii85_file status { cairo_ascii85_file flushfile } if } def
/cairo_image { image cairo_flush_ascii85_file } def
/cairo_imagemask { imagemask cairo_flush_ascii85_file } def
%%EndProlog
%%BeginSetup
%%EndSetup
%%Page: 1 1
%%BeginPageSetup
%%PageBoundingBox: 0 0 384 384
%%EndPageSetup
q 0 0 384 384 rectclip
1 0 0 -1 0 384 cm q
1 0.454902 0.34902 rg
384 192 m 384 298.039 298.039 384 192 384 c 85.961 384 0 298.039 0 192 
c 0 85.961 85.961 0 192 0 c 298.039 0 384 85.961 384 192 c h
384 192 m f
0.94902 0.294118 0.235294 rg
384 192 m 384 86.543 297.445 0 192 0 c 192 384 l 297.445 384 384 297.457
 384 192 c h
384 192 m f
1 0.752941 0.501961 rg
361.5 192 m 361.5 285.613 285.613 361.5 192 361.5 c 98.387 361.5 22.5 285.613
 22.5 192 c 22.5 98.387 98.387 22.5 192 22.5 c 285.613 22.5 361.5 98.387
 361.5 192 c h
361.5 192 m f
0.901961 0.580392 0.360784 rg
361.5 192 m 361.5 98.945 285.055 22.5 192 22.5 c 192 361.5 l 285.055 361.5
 361.5 285.055 361.5 192 c h
361.5 192 m f
0.160784 0.65098 0.0627451 rg
266.266 161.844 m 217.863 150.23 l 200.238 167.566 190.879 188.539 190.789
 210.906 c 190.68 237.496 203.91 264.828 229.047 289.953 c 233.441 294.348
 240.559 294.348 244.953 289.953 c 286.812 248.098 294.766 200.207 266.266
 161.844 c h
266.266 161.844 m f
0.4 0.74902 0.223529 rg
262.227 116.426 m 223.508 185.266 l 242.824 210.996 272.355 225.75 304.5
 225.75 c 327 225.75 l 333.219 225.75 338.25 220.719 338.25 214.5 c 338.25
 168.234 306.984 127.906 262.227 116.426 c h
262.227 116.426 m f
1 0.882353 0.298039 rg
136.828 89.398 m 125.797 91.707 l 101.039 96.879 47.586 130.945 45.168 
198.602 c 135.648 198.035 l 137.277 188.32 142.848 182.5 147.855 179.441
 c 154.602 175.324 l h
136.828 89.398 m f
1 0.74902 0.25098 rg
134.938 203.273 m 134.938 201.309 135.363 199.738 135.648 198.035 c 123.562
 187.234 107.789 180.75 90.75 180.75 c 73.426 180.75 57.383 187.348 45.168
 198.602 c 45.109 200.172 44.938 201.664 44.938 203.273 c 44.938 231.848
 54.078 258.043 72.438 279.5 c 146.113 225.926 l 141.477 222.699 134.938
 216.078 134.938 203.273 c h
134.938 203.273 m f
1 0.882353 0.298039 rg
150.406 228.508 m 149.84 228.281 148.121 227.324 146.113 225.926 c 129.398
 226.086 113.207 231.285 99.363 241.789 c 86.441 251.617 77.34 264.801 72.438
 279.504 c 85.43 294.688 104.773 307.719 119.645 313.094 c 143.172 321.613
 168.902 309.195 177.277 286.066 c 185.312 263.773 173.938 237.113 150.406
 228.508 c h
150.406 228.508 m f
1 0.454902 0.34902 rg
270.75 124.5 m 270.75 167.992 235.492 203.25 192 203.25 c 148.508 203.25
 113.25 167.992 113.25 124.5 c 113.25 81.008 148.508 45.75 192 45.75 c 212.887
 45.75 232.918 54.047 247.684 68.816 c 262.453 83.582 270.75 103.613 270.75
 124.5 c h
270.75 124.5 m f
0.94902 0.294118 0.235294 rg
270.75 124.5 m 270.75 81.082 235.418 45.75 192 45.75 c 192 203.25 l 235.418
 203.25 270.75 167.918 270.75 124.5 c h
270.75 124.5 m f
207.914 124.5 m 215.863 116.559 l 220.258 112.172 220.258 105.043 215.863
 100.648 c 211.469 96.254 204.348 96.254 199.953 100.648 c 192 108.598 l
 184.047 100.648 l 179.652 96.254 172.531 96.254 168.137 100.648 c 163.742
 105.043 163.742 112.172 168.137 116.559 c 176.086 124.5 l 168.137 132.441
 l 163.742 136.828 163.742 143.957 168.137 148.352 c 172.531 152.746 179.652
 152.746 184.047 148.352 c 192 140.402 l 199.953 148.352 l 204.348 152.746
 211.469 152.746 215.863 148.352 c 220.258 143.957 220.258 136.828 215.863
 132.441 c h
207.914 124.5 m f
0.8 0.160784 0.266667 rg
215.863 148.352 m 220.258 143.957 220.258 136.828 215.863 132.441 c 207.914
 124.5 l 215.863 116.559 l 220.258 112.172 220.258 105.043 215.863 100.648
 c 211.469 96.254 204.348 96.254 199.953 100.648 c 192 108.598 l 192 140.402
 l 199.953 148.352 l 204.348 152.746 211.469 152.746 215.863 148.352 c h
215.863 148.352 m f
Q Q
showpage
%%Trailer
end
%%EOF
