%!PS-Adobe-3.0 EPSF-3.0
%%Creator: cairo 1.16.0 (https://cairographics.org)
%%CreationDate: Thu Apr  8 07:10:37 2021
%%Pages: 1
%%DocumentData: Clean7Bit
%%LanguageLevel: 2
%%BoundingBox: 0 0 384 384
%%EndComments
%%BeginProlog
50 dict begin
/q { gsave } bind def
/Q { grestore } bind def
/cm { 6 array astore concat } bind def
/w { setlinewidth } bind def
/J { setlinecap } bind def
/j { setlinejoin } bind def
/M { setmiterlimit } bind def
/d { setdash } bind def
/m { moveto } bind def
/l { lineto } bind def
/c { curveto } bind def
/h { closepath } bind def
/re { exch dup neg 3 1 roll 5 3 roll moveto 0 rlineto
      0 exch rlineto 0 rlineto closepath } bind def
/S { stroke } bind def
/f { fill } bind def
/f* { eofill } bind def
/n { newpath } bind def
/W { clip } bind def
/W* { eoclip } bind def
/BT { } bind def
/ET { } bind def
/BDC { mark 3 1 roll /BDC pdfmark } bind def
/EMC { mark /EMC pdfmark } bind def
/cairo_store_point { /cairo_point_y exch def /cairo_point_x exch def } def
/Tj { show currentpoint cairo_store_point } bind def
/TJ {
  {
    dup
    type /stringtype eq
    { show } { -0.001 mul 0 cairo_font_matrix dtransform rmoveto } ifelse
  } forall
  currentpoint cairo_store_point
} bind def
/cairo_selectfont { cairo_font_matrix aload pop pop pop 0 0 6 array astore
    cairo_font exch selectfont cairo_point_x cairo_point_y moveto } bind def
/Tf { pop /cairo_font exch def /cairo_font_matrix where
      { pop cairo_selectfont } if } bind def
/Td { matrix translate cairo_font_matrix matrix concatmatrix dup
      /cairo_font_matrix exch def dup 4 get exch 5 get cairo_store_point
      /cairo_font where { pop cairo_selectfont } if } bind def
/Tm { 2 copy 8 2 roll 6 array astore /cairo_font_matrix exch def
      cairo_store_point /cairo_font where { pop cairo_selectfont } if } bind def
/g { setgray } bind def
/rg { setrgbcolor } bind def
/d1 { setcachedevice } bind def
/cairo_data_source {
  CairoDataIndex CairoData length lt
    { CairoData CairoDataIndex get /CairoDataIndex CairoDataIndex 1 add def }
    { () } ifelse
} def
/cairo_flush_ascii85_file { cairo_ascii85_file status { cairo_ascii85_file flushfile } if } def
/cairo_image { image cairo_flush_ascii85_file } def
/cairo_imagemask { imagemask cairo_flush_ascii85_file } def
%%EndProlog
%%BeginSetup
%%EndSetup
%%Page: 1 1
%%BeginPageSetup
%%PageBoundingBox: 0 0 384 384
%%EndPageSetup
q 0 0 384 384 rectclip
1 0 0 -1 0 384 cm q
0.952941 0.960784 0.976471 rg
124.5 0 m 55.945 0 0 74.602 0 135.75 c 0 192.109 47.004 225.75 124.5 225.75
 c 201.996 225.75 248.25 192.109 248.25 135.75 c 248.25 74.602 193.055 0
 124.5 0 c h
124.5 0 m f
0.882353 0.901961 0.941176 rg
248.25 135.75 m 248.25 74.602 193.055 0 124.5 0 c 124.5 225.75 l 201.996
 225.75 248.25 192.109 248.25 135.75 c h
248.25 135.75 m f
0.952941 0.960784 0.976471 rg
259.5 158.25 m 190.945 158.25 135.75 232.102 135.75 293.25 c 135.75 349.609
 182.004 384 259.5 384 c 336.996 384 384 349.609 384 293.25 c 384 232.102
 328.055 158.25 259.5 158.25 c h
259.5 158.25 m f
0.882353 0.901961 0.941176 rg
384 293.25 m 384 232.102 328.055 158.25 259.5 158.25 c 259.5 384 l 336.996
 384 384 349.609 384 293.25 c h
384 293.25 m f
135.75 79.5 m 135.75 85.715 130.715 90.75 124.5 90.75 c 118.285 90.75 113.25
 85.715 113.25 79.5 c 113.25 73.285 118.285 68.25 124.5 68.25 c 130.715 
68.25 135.75 73.285 135.75 79.5 c h
135.75 79.5 m f
113.25 124.5 m 113.25 130.715 108.215 135.75 102 135.75 c 95.785 135.75
 90.75 130.715 90.75 124.5 c 90.75 118.285 95.785 113.25 102 113.25 c 108.215
 113.25 113.25 118.285 113.25 124.5 c h
113.25 124.5 m f
0.811765 0.843137 0.901961 rg
158.25 124.5 m 158.25 130.715 153.215 135.75 147 135.75 c 140.785 135.75
 135.75 130.715 135.75 124.5 c 135.75 118.285 140.785 113.25 147 113.25 
c 153.215 113.25 158.25 118.285 158.25 124.5 c h
158.25 124.5 m f
0.701961 0.388235 0.282353 rg
259.5 203.25 m 214.566 203.25 180.75 257.852 180.75 293.25 c 180.75 313.785
 194.418 338.25 259.5 338.25 c 324.582 338.25 338.25 313.785 338.25 293.25
 c 338.25 257.852 304.434 203.25 259.5 203.25 c h
259.5 203.25 m f
0.6 0.25098 0.180392 rg
338.25 293.25 m 338.25 257.852 304.434 203.25 259.5 203.25 c 259.5 338.25
 l 324.582 338.25 338.25 313.785 338.25 293.25 c h
338.25 293.25 m f
0.811765 0.843137 0.901961 rg
135.75 79.5 m 135.75 85.801 130.801 90.75 124.5 90.75 c 124.5 68.25 l 130.801
 68.25 135.75 73.199 135.75 79.5 c h
135.75 79.5 m f
Q Q
showpage
%%Trailer
end
%%EOF
