%!PS-Adobe-3.0 EPSF-3.0
%%Creator: cairo 1.16.0 (https://cairographics.org)
%%CreationDate: Thu Apr  8 07:10:40 2021
%%Pages: 1
%%DocumentData: Clean7Bit
%%LanguageLevel: 2
%%BoundingBox: 0 90 384 294
%%EndComments
%%BeginProlog
50 dict begin
/q { gsave } bind def
/Q { grestore } bind def
/cm { 6 array astore concat } bind def
/w { setlinewidth } bind def
/J { setlinecap } bind def
/j { setlinejoin } bind def
/M { setmiterlimit } bind def
/d { setdash } bind def
/m { moveto } bind def
/l { lineto } bind def
/c { curveto } bind def
/h { closepath } bind def
/re { exch dup neg 3 1 roll 5 3 roll moveto 0 rlineto
      0 exch rlineto 0 rlineto closepath } bind def
/S { stroke } bind def
/f { fill } bind def
/f* { eofill } bind def
/n { newpath } bind def
/W { clip } bind def
/W* { eoclip } bind def
/BT { } bind def
/ET { } bind def
/BDC { mark 3 1 roll /BDC pdfmark } bind def
/EMC { mark /EMC pdfmark } bind def
/cairo_store_point { /cairo_point_y exch def /cairo_point_x exch def } def
/Tj { show currentpoint cairo_store_point } bind def
/TJ {
  {
    dup
    type /stringtype eq
    { show } { -0.001 mul 0 cairo_font_matrix dtransform rmoveto } ifelse
  } forall
  currentpoint cairo_store_point
} bind def
/cairo_selectfont { cairo_font_matrix aload pop pop pop 0 0 6 array astore
    cairo_font exch selectfont cairo_point_x cairo_point_y moveto } bind def
/Tf { pop /cairo_font exch def /cairo_font_matrix where
      { pop cairo_selectfont } if } bind def
/Td { matrix translate cairo_font_matrix matrix concatmatrix dup
      /cairo_font_matrix exch def dup 4 get exch 5 get cairo_store_point
      /cairo_font where { pop cairo_selectfont } if } bind def
/Tm { 2 copy 8 2 roll 6 array astore /cairo_font_matrix exch def
      cairo_store_point /cairo_font where { pop cairo_selectfont } if } bind def
/g { setgray } bind def
/rg { setrgbcolor } bind def
/d1 { setcachedevice } bind def
/cairo_data_source {
  CairoDataIndex CairoData length lt
    { CairoData CairoDataIndex get /CairoDataIndex CairoDataIndex 1 add def }
    { () } ifelse
} def
/cairo_flush_ascii85_file { cairo_ascii85_file status { cairo_ascii85_file flushfile } if } def
/cairo_image { image cairo_flush_ascii85_file } def
/cairo_imagemask { imagemask cairo_flush_ascii85_file } def
%%EndProlog
%%BeginSetup
%%EndSetup
%%Page: 1 1
%%BeginPageSetup
%%PageBoundingBox: 0 90 384 294
%%EndPageSetup
q 0 90 384 204 rectclip
1 0 0 -1 0 384 cm q
1 0.74902 0.25098 rg
72.047 145.836 m 23.07 182.113 22.5 234.781 22.5 237 c 22.5 259.5 l 22.5
 265.719 27.531 270.75 33.75 270.75 c 101.25 270.75 l h
72.047 145.836 m f
1 0.882353 0.298039 rg
259.5 99.531 m 239.133 122.012 l 192 121.969 l 146.941 121.926 l 124.5 
99.406 l 110.02 103.402 95.84 108.496 84.176 115.336 c 73.895 121.359 67.5
 132.531 67.5 144.473 c 67.5 259.5 l 361.5 259.5 l 361.5 214.5 l 361.5 167.406
 328.066 118.848 259.5 99.531 c h
259.5 99.531 m f
1 0.74902 0.25098 rg
361.5 214.5 m 361.5 167.406 328.066 118.848 259.5 99.531 c 239.133 122.012
 l 192 121.969 l 192 259.5 l 361.5 259.5 l h
361.5 214.5 m f
0.94902 0.294118 0.235294 rg
350.25 248.25 m 331.641 248.25 316.5 233.109 316.5 214.5 c 316.5 195.891
 331.641 180.75 350.25 180.75 c 368.859 180.75 384 195.891 384 214.5 c 384
 233.109 368.859 248.25 350.25 248.25 c h
350.25 248.25 m f
0.952941 0.960784 0.976471 rg
372.75 248.25 m 11.25 248.25 l 5.035 248.25 0 253.285 0 259.5 c 0 278.141
 15.109 293.25 33.75 293.25 c 350.25 293.25 l 368.891 293.25 384 278.141
 384 259.5 c 384 253.285 378.965 248.25 372.75 248.25 c h
372.75 248.25 m f
0.882353 0.901961 0.941176 rg
384 259.5 m 384 253.285 378.965 248.25 372.75 248.25 c 192 248.25 l 192
 293.25 l 350.25 293.25 l 368.891 293.25 384 278.141 384 259.5 c h
384 259.5 m f
1 0.454902 0.34902 rg
192 90.75 m 166.902 90.75 144.551 93.871 124.5 99.406 c 124.5 169.5 l 124.5
 181.902 134.586 192 147 192 c 159.414 192 169.5 181.902 169.5 169.5 c 169.5
 157.098 179.586 147 192 147 c 204.414 147 214.5 157.098 214.5 169.5 c 214.5
 181.902 224.586 192 237 192 c 249.414 192 259.5 181.902 259.5 169.5 c 259.5
 99.531 l 239.914 94.012 217.555 90.75 192 90.75 c h
192 90.75 m f
0.94902 0.294118 0.235294 rg
214.5 169.5 m 214.5 181.902 224.586 192 237 192 c 249.414 192 259.5 181.902
 259.5 169.5 c 259.5 99.531 l 239.914 94.012 217.555 90.75 192 90.75 c 192
 147 l 204.414 147 214.5 157.098 214.5 169.5 c h
214.5 169.5 m f
Q Q
showpage
%%Trailer
end
%%EOF
