%!PS-Adobe-3.0 EPSF-3.0
%%Creator: cairo 1.16.0 (https://cairographics.org)
%%CreationDate: Thu Apr  8 07:10:41 2021
%%Pages: 1
%%DocumentData: Clean7Bit
%%LanguageLevel: 2
%%BoundingBox: 0 12 384 372
%%EndComments
%%BeginProlog
50 dict begin
/q { gsave } bind def
/Q { grestore } bind def
/cm { 6 array astore concat } bind def
/w { setlinewidth } bind def
/J { setlinecap } bind def
/j { setlinejoin } bind def
/M { setmiterlimit } bind def
/d { setdash } bind def
/m { moveto } bind def
/l { lineto } bind def
/c { curveto } bind def
/h { closepath } bind def
/re { exch dup neg 3 1 roll 5 3 roll moveto 0 rlineto
      0 exch rlineto 0 rlineto closepath } bind def
/S { stroke } bind def
/f { fill } bind def
/f* { eofill } bind def
/n { newpath } bind def
/W { clip } bind def
/W* { eoclip } bind def
/BT { } bind def
/ET { } bind def
/BDC { mark 3 1 roll /BDC pdfmark } bind def
/EMC { mark /EMC pdfmark } bind def
/cairo_store_point { /cairo_point_y exch def /cairo_point_x exch def } def
/Tj { show currentpoint cairo_store_point } bind def
/TJ {
  {
    dup
    type /stringtype eq
    { show } { -0.001 mul 0 cairo_font_matrix dtransform rmoveto } ifelse
  } forall
  currentpoint cairo_store_point
} bind def
/cairo_selectfont { cairo_font_matrix aload pop pop pop 0 0 6 array astore
    cairo_font exch selectfont cairo_point_x cairo_point_y moveto } bind def
/Tf { pop /cairo_font exch def /cairo_font_matrix where
      { pop cairo_selectfont } if } bind def
/Td { matrix translate cairo_font_matrix matrix concatmatrix dup
      /cairo_font_matrix exch def dup 4 get exch 5 get cairo_store_point
      /cairo_font where { pop cairo_selectfont } if } bind def
/Tm { 2 copy 8 2 roll 6 array astore /cairo_font_matrix exch def
      cairo_store_point /cairo_font where { pop cairo_selectfont } if } bind def
/g { setgray } bind def
/rg { setrgbcolor } bind def
/d1 { setcachedevice } bind def
/cairo_data_source {
  CairoDataIndex CairoData length lt
    { CairoData CairoDataIndex get /CairoDataIndex CairoDataIndex 1 add def }
    { () } ifelse
} def
/cairo_flush_ascii85_file { cairo_ascii85_file status { cairo_ascii85_file flushfile } if } def
/cairo_image { image cairo_flush_ascii85_file } def
/cairo_imagemask { imagemask cairo_flush_ascii85_file } def
%%EndProlog
%%BeginSetup
%%EndSetup
%%Page: 1 1
%%BeginPageSetup
%%PageBoundingBox: 0 12 384 372
%%EndPageSetup
q 0 12 384 360 rectclip
1 0 0 -1 0 384 cm q
0.239216 0.270588 0.4 rg
290.172 147.352 m 285.207 143.629 284.195 136.574 287.91 131.609 c 340.492
 61.504 l 342.621 58.672 345.961 57 349.5 57 c 372.75 57 l 378.969 57 384
 62.031 384 68.25 c 384 74.469 378.969 79.5 372.75 79.5 c 355.125 79.5 l
 305.93 145.098 l 302.191 150.074 295.145 151.082 290.172 147.352 c h
290.172 147.352 m f
0.952941 0.960784 0.976471 rg
288.523 106.949 m 245.289 84.449 l 141.789 84.449 l 95.477 106.949 l 18.449
 214.5 l 365.551 214.5 l h
288.523 106.949 m f
0.882353 0.901961 0.941176 rg
288.523 106.949 m 245.289 84.449 l 192 84.449 l 192 214.5 l 365.551 214.5
 l h
288.523 106.949 m f
0.301961 0.368627 0.501961 rg
372.75 192 m 11.25 192 l 5.031 192 0 197.031 0 203.25 c 0 259.699 32.348
 287.582 83.234 312.234 c 101.473 321.078 113.25 339.875 113.25 360.75 c
 113.25 366.969 118.281 372 124.5 372 c 259.5 372 l 265.719 372 270.75 366.352
 270.75 360.137 c 270.75 339.875 282.527 321.078 300.766 312.234 c 351.652
 287.582 384 259.699 384 203.25 c 384 197.031 378.969 192 372.75 192 c h
372.75 192 m f
0.239216 0.270588 0.4 rg
270.75 360.137 m 270.75 339.875 282.527 321.078 300.766 312.234 c 351.652
 287.582 384 259.699 384 203.25 c 384 197.031 378.969 192 372.75 192 c 192
 192 l 192 372 l 259.5 372 l 265.719 372 270.75 366.352 270.75 360.137 c
 h
270.75 360.137 m f
1 0.454902 0.34902 rg
237.898 35.625 m 227.324 20.773 210.227 12 192 12 c 173.773 12 156.676 
20.773 146.102 35.625 c 95.477 106.949 l 107.324 115.41 115.453 124.5 135.75
 124.5 c 153.75 124.5 163.199 116.848 170.852 110.773 c 177.602 105.598 
181.875 102 192 102 c 202.125 102 206.398 105.598 213.148 110.773 c 220.801
 116.848 230.25 124.5 248.25 124.5 c 271.078 124.5 280.367 112.047 288.523
 106.949 c h
237.898 35.625 m f
0.94902 0.294118 0.235294 rg
248.25 124.5 m 271.078 124.5 280.367 112.047 288.523 106.949 c 237.898 
35.625 l 227.324 20.773 210.227 12 192 12 c 192 102 l 202.125 102 206.398
 105.598 213.148 110.773 c 220.801 116.848 230.25 124.5 248.25 124.5 c h
248.25 124.5 m f
Q Q
showpage
%%Trailer
end
%%EOF
